"participant","tecla","latency","tempo_pergunta","posicao","tamanho_palavra","bloco","palavra","block","correct"
10,"I",1960,10000,"p1",12,3,"Irritado (a)","practiceA","0"
10,"I",1317,10000,"p2",4,3,"Sexy","practiceA","0"
10,"E",829,10000,"p1",9,3,"Calmo (a)","practiceA","1"
10,"I",650,10000,"p1",13,3,"Romântico (a)","practiceA","0"
10,"E",554,10000,"p2",9,3,"Calmo (a)","practiceA","1"
10,"I",517,10000,"p2",7,3,"Sensual","practiceA","0"
10,"I",677,10000,"p2",14,3,"Energizado (a)","practiceA","0"
10,"I",973,10000,"p2",14,3,"Revigorado (a)","practiceA","0"
10,"E",692,10000,"p2",14,3,"Nostálgico (a)","practiceA","1"
10,"E",1286,10000,"p2",13,3,"Com bom-humor","practiceA","1"
10,"E",556,10000,"p2",13,3,"Tranquilo (a)","practiceA","1"
10,"I",565,10000,"p1",4,3,"Sexy","practiceA","0"
10,"I",600,10000,"p1",11,3,"Enjoado (a)","practiceA","0"
10,"I",651,10000,"p2",11,3,"Animado (a)","practiceA","0"
10,"E",625,10000,"p1",13,3,"Com bem-estar","practiceA","1"
10,"I",720,10000,"p1",11,3,"Animado (a)","practiceA","0"
10,"I",589,10000,"p1",7,3,"Sensual","practiceA","0"
10,"E",663,10000,"p1",12,3,"Relaxado (a)","practiceA","1"
10,"I",1014,10000,"p2",6,3,"Alerta","practiceA","0"
10,"I",1536,10000,"p1",6,3,"Alerta","practiceA","0"
10,"E",667,10000,"p1",13,3,"Com bom-humor","practiceA","1"
10,"E",992,10000,"p1",13,3,"Tranquilo (a)","practiceA","1"
10,"E",771,10000,"p2",12,3,"Relaxado (a)","practiceA","1"
10,"I",640,10000,"p2",11,3,"Enjoado (a)","practiceA","0"
10,"E",653,10000,"p1",14,3,"Nostálgico (a)","practiceA","1"
10,"I",772,10000,"p2",13,3,"Romântico (a)","practiceA","0"
10,"I",725,10000,"p1",14,3,"Energizado (a)","practiceA","0"
10,"I",830,10000,"p2",12,3,"Irritado (a)","practiceA","0"
10,"I",1634,10000,"p1",14,3,"Revigorado (a)","practiceA","0"
10,"E",623,10000,"p2",13,3,"Com bem-estar","practiceA","1"
10,"E",634,10000,"p1",13,3,"Com bem-estar","experimentalA","1"
10,"E",638,10000,"p1",14,3,"Nostálgico (a)","experimentalA","1"
10,"I",697,10000,"p1",13,3,"Romântico (a)","experimentalA","0"
10,"E",590,10000,"p1",9,3,"Calmo (a)","experimentalA","1"
10,"I",783,10000,"p2",4,3,"Sexy","experimentalA","0"
10,"I",611,10000,"p2",11,3,"Enjoado (a)","experimentalA","0"
10,"E",885,10000,"p1",13,3,"Com bom-humor","experimentalA","1"
10,"I",866,10000,"p1",14,3,"Energizado (a)","experimentalA","0"
10,"E",1088,10000,"p2",13,3,"Com bom-humor","experimentalA","1"
10,"I",2529,10000,"p2",13,3,"Romântico (a)","experimentalA","0"
10,"E",632,10000,"p2",13,3,"Com bem-estar","experimentalA","1"
10,"E",789,10000,"p2",12,3,"Relaxado (a)","experimentalA","1"
10,"E",752,10000,"p1",13,3,"Tranquilo (a)","experimentalA","1"
10,"I",825,10000,"p2",14,3,"Revigorado (a)","experimentalA","0"
10,"I",1089,10000,"p2",11,3,"Animado (a)","experimentalA","0"
10,"I",688,10000,"p1",7,3,"Sensual","experimentalA","0"
10,"E",573,10000,"p2",9,3,"Calmo (a)","experimentalA","1"
10,"I",1109,10000,"p2",12,3,"Irritado (a)","experimentalA","0"
10,"E",698,10000,"p2",14,3,"Nostálgico (a)","experimentalA","1"
10,"I",2303,10000,"p1",11,3,"Animado (a)","experimentalA","0"
10,"E",598,10000,"p2",13,3,"Tranquilo (a)","experimentalA","1"
10,"I",695,10000,"p2",6,3,"Alerta","experimentalA","0"
10,"I",1217,10000,"p2",14,3,"Energizado (a)","experimentalA","0"
10,"I",588,10000,"p1",6,3,"Alerta","experimentalA","0"
10,"I",614,10000,"p1",14,3,"Revigorado (a)","experimentalA","0"
10,"I",827,10000,"p2",7,3,"Sensual","experimentalA","0"
10,"I",858,10000,"p1",11,3,"Enjoado (a)","experimentalA","0"
10,"E",750,10000,"p1",12,3,"Relaxado (a)","experimentalA","1"
10,"I",567,10000,"p1",12,3,"Irritado (a)","experimentalA","0"
10,"I",536,10000,"p1",4,3,"Sexy","experimentalA","0"
10,"I",1799,10000,"p1",12,5,"Relaxado (a)","practiceB","1"
10,"I",891,10000,"p2",13,5,"Com bom-humor","practiceB","1"
10,"I",2291,10000,"p2",11,5,"Animado (a)","practiceB","1"
10,"E",2268,10000,"p2",7,5,"Sensual","practiceB","0"
10,"I",722,10000,"p2",14,5,"Nostálgico (a)","practiceB","1"
10,"E",936,10000,"p1",14,5,"Energizado (a)","practiceB","0"
10,"E",819,10000,"p2",14,5,"Revigorado (a)","practiceB","0"
10,"I",657,10000,"p1",13,5,"Com bem-estar","practiceB","1"
10,"E",1063,10000,"p1",12,5,"Irritado (a)","practiceB","0"
10,"E",628,10000,"p2",6,5,"Alerta","practiceB","0"
10,"I",683,10000,"p1",13,5,"Tranquilo (a)","practiceB","1"
10,"E",889,10000,"p1",7,5,"Sensual","practiceB","0"
10,"I",550,10000,"p2",12,5,"Relaxado (a)","practiceB","1"
10,"I",549,10000,"p2",9,5,"Calmo (a)","practiceB","1"
10,"E",618,10000,"p1",4,5,"Sexy","practiceB","0"
10,"I",747,10000,"p1",13,5,"Com bom-humor","practiceB","1"
10,"E",1432,10000,"p2",4,5,"Sexy","practiceB","0"
10,"E",713,10000,"p2",13,5,"Romântico (a)","practiceB","0"
10,"E",919,10000,"p1",6,5,"Alerta","practiceB","0"
10,"I",541,10000,"p1",9,5,"Calmo (a)","practiceB","1"
10,"E",791,10000,"p1",14,5,"Revigorado (a)","practiceB","0"
10,"I",611,10000,"p2",13,5,"Tranquilo (a)","practiceB","1"
10,"E",602,10000,"p2",11,5,"Enjoado (a)","practiceB","0"
10,"E",708,10000,"p2",14,5,"Energizado (a)","practiceB","0"
10,"I",882,10000,"p1",14,5,"Nostálgico (a)","practiceB","1"
10,"E",724,10000,"p1",11,5,"Enjoado (a)","practiceB","0"
10,"E",670,10000,"p2",12,5,"Irritado (a)","practiceB","0"
10,"E",641,10000,"p1",13,5,"Romântico (a)","practiceB","0"
10,"I",617,10000,"p2",13,5,"Com bem-estar","practiceB","1"
10,"I",1678,10000,"p1",11,5,"Animado (a)","practiceB","1"
10,"I",1548,10000,"p2",13,5,"Com bom-humor","experimentalB","1"
10,"I",782,10000,"p2",12,5,"Relaxado (a)","experimentalB","1"
10,"E",768,10000,"p2",6,5,"Alerta","experimentalB","0"
10,"I",2331,10000,"p1",4,5,"Sexy","experimentalB","1"
10,"E",1016,10000,"p1",11,5,"Animado (a)","experimentalB","0"
10,"I",615,10000,"p2",13,5,"Com bem-estar","experimentalB","1"
10,"E",676,10000,"p2",4,5,"Sexy","experimentalB","0"
10,"I",644,10000,"p2",13,5,"Tranquilo (a)","experimentalB","1"
10,"I",810,10000,"p1",14,5,"Nostálgico (a)","experimentalB","1"
10,"E",1157,10000,"p2",11,5,"Enjoado (a)","experimentalB","0"
10,"E",584,10000,"p1",11,5,"Enjoado (a)","experimentalB","0"
10,"E",1984,10000,"p1",6,5,"Alerta","experimentalB","0"
10,"E",846,10000,"p1",14,5,"Revigorado (a)","experimentalB","0"
10,"I",774,10000,"p2",9,5,"Calmo (a)","experimentalB","1"
10,"I",1171,10000,"p1",13,5,"Com bem-estar","experimentalB","1"
10,"E",2881,10000,"p1",14,5,"Energizado (a)","experimentalB","0"
10,"E",613,10000,"p1",7,5,"Sensual","experimentalB","0"
10,"I",1127,10000,"p1",13,5,"Tranquilo (a)","experimentalB","1"
10,"E",838,10000,"p2",12,5,"Irritado (a)","experimentalB","0"
10,"E",792,10000,"p2",14,5,"Revigorado (a)","experimentalB","0"
10,"E",1651,10000,"p1",12,5,"Irritado (a)","experimentalB","0"
10,"E",717,10000,"p2",13,5,"Romântico (a)","experimentalB","0"
10,"I",1171,10000,"p1",12,5,"Relaxado (a)","experimentalB","1"
10,"E",1668,10000,"p1",13,5,"Romântico (a)","experimentalB","0"
10,"E",1080,10000,"p2",7,5,"Sensual","experimentalB","0"
10,"E",858,10000,"p2",11,5,"Animado (a)","experimentalB","0"
10,"E",815,10000,"p1",13,5,"Com bom-humor","experimentalB","0"
10,"I",869,10000,"p2",14,5,"Nostálgico (a)","experimentalB","1"
10,"I",619,10000,"p1",9,5,"Calmo (a)","experimentalB","1"
10,"E",854,10000,"p2",14,5,"Energizado (a)","experimentalB","0"
4,"I",3482,10000,"p1",11,3,"Enjoado (a)","practiceA","0"
4,"E",2372,10000,"p2",13,3,"Com bom-humor","practiceA","1"
4,"E",1941,10000,"p2",13,3,"Com bem-estar","practiceA","1"
4,"E",1807,10000,"p2",12,3,"Relaxado (a)","practiceA","1"
4,"E",1930,10000,"p1",13,3,"Com bem-estar","practiceA","1"
4,"E",2026,10000,"p2",11,3,"Animado (a)","practiceA","1"
4,"I",1410,10000,"p2",12,3,"Irritado (a)","practiceA","0"
4,"I",1151,10000,"p1",14,3,"Energizado (a)","practiceA","0"
4,"E",1057,10000,"p2",13,3,"Tranquilo (a)","practiceA","1"
4,"I",649,10000,"p2",4,3,"Sexy","practiceA","0"
4,"E",716,10000,"p1",9,3,"Calmo (a)","practiceA","1"
4,"I",670,10000,"p2",7,3,"Sensual","practiceA","0"
4,"E",617,10000,"p2",9,3,"Calmo (a)","practiceA","1"
4,"I",661,10000,"p2",14,3,"Energizado (a)","practiceA","0"
4,"I",627,10000,"p1",7,3,"Sensual","practiceA","0"
4,"E",662,10000,"p1",14,3,"Nostálgico (a)","practiceA","1"
4,"E",1068,10000,"p1",13,3,"Com bom-humor","practiceA","1"
4,"I",950,10000,"p2",11,3,"Enjoado (a)","practiceA","0"
4,"E",742,10000,"p2",14,3,"Nostálgico (a)","practiceA","1"
4,"I",956,10000,"p2",14,3,"Revigorado (a)","practiceA","0"
4,"I",1048,10000,"p1",12,3,"Irritado (a)","practiceA","0"
4,"I",1321,10000,"p2",13,3,"Romântico (a)","practiceA","0"
4,"E",636,10000,"p1",13,3,"Tranquilo (a)","practiceA","1"
4,"I",2138,10000,"p1",11,3,"Animado (a)","practiceA","0"
4,"E",993,10000,"p1",12,3,"Relaxado (a)","practiceA","1"
4,"I",993,10000,"p1",6,3,"Alerta","practiceA","0"
4,"I",1110,10000,"p1",14,3,"Revigorado (a)","practiceA","0"
4,"I",884,10000,"p2",6,3,"Alerta","practiceA","0"
4,"E",612,10000,"p1",13,3,"Romântico (a)","practiceA","1"
4,"I",787,10000,"p1",4,3,"Sexy","practiceA","0"
4,"I",680,10000,"p1",7,3,"Sensual","experimentalA","0"
4,"I",601,10000,"p1",14,3,"Energizado (a)","experimentalA","0"
4,"I",753,10000,"p2",14,3,"Revigorado (a)","experimentalA","0"
4,"I",1233,10000,"p2",12,3,"Irritado (a)","experimentalA","0"
4,"E",624,10000,"p2",9,3,"Calmo (a)","experimentalA","1"
4,"E",523,10000,"p1",9,3,"Calmo (a)","experimentalA","1"
4,"E",675,10000,"p2",13,3,"Tranquilo (a)","experimentalA","1"
4,"I",1231,10000,"p2",13,3,"Romântico (a)","experimentalA","0"
4,"E",675,10000,"p1",13,3,"Tranquilo (a)","experimentalA","1"
4,"I",621,10000,"p1",4,3,"Sexy","experimentalA","0"
4,"E",789,10000,"p2",12,3,"Relaxado (a)","experimentalA","1"
4,"E",550,10000,"p1",12,3,"Relaxado (a)","experimentalA","1"
4,"I",794,10000,"p1",11,3,"Enjoado (a)","experimentalA","0"
4,"I",930,10000,"p1",14,3,"Revigorado (a)","experimentalA","0"
4,"I",1184,10000,"p1",11,3,"Animado (a)","experimentalA","0"
4,"E",724,10000,"p1",14,3,"Nostálgico (a)","experimentalA","1"
4,"E",2370,10000,"p1",13,3,"Com bom-humor","experimentalA","1"
4,"E",789,10000,"p2",14,3,"Nostálgico (a)","experimentalA","1"
4,"E",966,10000,"p2",13,3,"Com bom-humor","experimentalA","1"
4,"I",677,10000,"p1",12,3,"Irritado (a)","experimentalA","0"
4,"I",2076,10000,"p2",14,3,"Energizado (a)","experimentalA","0"
4,"I",992,10000,"p1",6,3,"Alerta","experimentalA","0"
4,"I",1789,10000,"p2",7,3,"Sensual","experimentalA","0"
4,"I",635,10000,"p2",4,3,"Sexy","experimentalA","0"
4,"I",676,10000,"p2",11,3,"Enjoado (a)","experimentalA","0"
4,"I",663,10000,"p1",13,3,"Romântico (a)","experimentalA","0"
4,"E",675,10000,"p2",13,3,"Com bem-estar","experimentalA","1"
4,"I",796,10000,"p2",11,3,"Animado (a)","experimentalA","0"
4,"E",735,10000,"p1",13,3,"Com bem-estar","experimentalA","1"
4,"I",945,10000,"p2",6,3,"Alerta","experimentalA","0"
4,"I",3749,10000,"p1",11,5,"Animado (a)","practiceB","1"
4,"I",1639,10000,"p2",7,5,"Sensual","practiceB","1"
4,"I",1284,10000,"p1",13,5,"Com bem-estar","practiceB","1"
4,"I",986,10000,"p2",9,5,"Calmo (a)","practiceB","1"
4,"I",3761,10000,"p1",4,5,"Sexy","practiceB","1"
4,"E",1188,10000,"p2",13,5,"Romântico (a)","practiceB","0"
4,"I",1012,10000,"p1",9,5,"Calmo (a)","practiceB","1"
4,"E",667,10000,"p1",11,5,"Enjoado (a)","practiceB","0"
4,"I",954,10000,"p2",13,5,"Com bem-estar","practiceB","1"
4,"I",1304,10000,"p1",6,5,"Alerta","practiceB","1"
4,"E",2734,10000,"p2",12,5,"Irritado (a)","practiceB","0"
4,"E",1376,10000,"p2",4,5,"Sexy","practiceB","0"
4,"E",2123,10000,"p1",12,5,"Irritado (a)","practiceB","0"
4,"E",930,10000,"p1",13,5,"Romântico (a)","practiceB","0"
4,"I",1081,10000,"p2",14,5,"Nostálgico (a)","practiceB","1"
4,"I",560,10000,"p1",14,5,"Nostálgico (a)","practiceB","1"
4,"I",2278,10000,"p1",14,5,"Revigorado (a)","practiceB","1"
4,"I",609,10000,"p2",14,5,"Revigorado (a)","practiceB","1"
4,"I",849,10000,"p1",12,5,"Relaxado (a)","practiceB","1"
4,"E",1565,10000,"p2",6,5,"Alerta","practiceB","0"
4,"I",674,10000,"p2",13,5,"Tranquilo (a)","practiceB","1"
4,"I",602,10000,"p1",13,5,"Tranquilo (a)","practiceB","1"
4,"I",845,10000,"p1",13,5,"Com bom-humor","practiceB","1"
4,"E",2425,10000,"p2",14,5,"Energizado (a)","practiceB","0"
4,"I",569,10000,"p2",12,5,"Relaxado (a)","practiceB","1"
4,"E",2174,10000,"p1",7,5,"Sensual","practiceB","0"
4,"E",976,10000,"p2",11,5,"Enjoado (a)","practiceB","0"
4,"I",635,10000,"p2",11,5,"Animado (a)","practiceB","1"
4,"E",3164,10000,"p1",14,5,"Energizado (a)","practiceB","0"
4,"I",695,10000,"p2",13,5,"Com bom-humor","practiceB","1"
4,"E",602,10000,"p2",12,5,"Irritado (a)","experimentalB","0"
4,"E",608,10000,"p1",11,5,"Enjoado (a)","experimentalB","0"
4,"I",600,10000,"p1",12,5,"Relaxado (a)","experimentalB","1"
4,"I",580,10000,"p2",13,5,"Com bem-estar","experimentalB","1"
4,"E",758,10000,"p2",4,5,"Sexy","experimentalB","0"
4,"E",597,10000,"p1",4,5,"Sexy","experimentalB","0"
4,"E",859,10000,"p1",14,5,"Revigorado (a)","experimentalB","0"
4,"E",669,10000,"p2",6,5,"Alerta","experimentalB","0"
4,"I",755,10000,"p2",12,5,"Relaxado (a)","experimentalB","1"
4,"E",2837,10000,"p2",14,5,"Energizado (a)","experimentalB","0"
4,"E",701,10000,"p1",11,5,"Animado (a)","experimentalB","0"
4,"E",716,10000,"p1",14,5,"Energizado (a)","experimentalB","0"
4,"I",709,10000,"p2",14,5,"Nostálgico (a)","experimentalB","1"
4,"I",1543,10000,"p1",9,5,"Calmo (a)","experimentalB","1"
4,"I",1243,10000,"p1",14,5,"Nostálgico (a)","experimentalB","1"
4,"E",772,10000,"p1",12,5,"Irritado (a)","experimentalB","0"
4,"E",1076,10000,"p2",11,5,"Enjoado (a)","experimentalB","0"
4,"I",1029,10000,"p2",13,5,"Tranquilo (a)","experimentalB","1"
4,"I",586,10000,"p1",13,5,"Com bem-estar","experimentalB","1"
4,"E",1454,10000,"p1",7,5,"Sensual","experimentalB","0"
4,"E",849,10000,"p2",14,5,"Revigorado (a)","experimentalB","0"
4,"E",756,10000,"p1",13,5,"Romântico (a)","experimentalB","0"
4,"I",738,10000,"p2",9,5,"Calmo (a)","experimentalB","1"
4,"E",1792,10000,"p2",7,5,"Sensual","experimentalB","0"
4,"E",1607,10000,"p2",13,5,"Com bom-humor","experimentalB","0"
4,"I",798,10000,"p1",13,5,"Tranquilo (a)","experimentalB","1"
4,"I",1180,10000,"p1",13,5,"Com bom-humor","experimentalB","1"
4,"I",1517,10000,"p2",11,5,"Animado (a)","experimentalB","1"
4,"E",1193,10000,"p2",13,5,"Romântico (a)","experimentalB","0"
4,"E",826,10000,"p1",6,5,"Alerta","experimentalB","0"
8,"i",1573,10000,"p2",11,3,"Animado (a)","practiceA","0"
8,"e",892,10000,"p2",12,3,"Irritado (a)","practiceA","1"
8,"i",1457,10000,"p2",11,3,"Enjoado (a)","practiceA","0"
8,"i",937,10000,"p1",13,3,"Com bom-humor","practiceA","0"
8,"i",590,10000,"p2",13,3,"Romântico (a)","practiceA","0"
8,"i",945,10000,"p2",14,3,"Nostálgico (a)","practiceA","0"
8,"i",927,10000,"p1",11,3,"Animado (a)","practiceA","0"
8,"i",565,10000,"p1",13,3,"Romântico (a)","practiceA","0"
8,"i",940,10000,"p2",9,3,"Calmo (a)","practiceA","0"
8,"i",559,10000,"p1",14,3,"Nostálgico (a)","practiceA","0"
8,"i",568,10000,"p1",7,3,"Sensual","practiceA","0"
8,"i",547,10000,"p2",4,3,"Sexy","practiceA","0"
8,"i",813,10000,"p1",14,3,"Revigorado (a)","practiceA","0"
8,"i",660,10000,"p2",6,3,"Alerta","practiceA","0"
8,"i",614,10000,"p1",14,3,"Energizado (a)","practiceA","0"
8,"i",849,10000,"p1",13,3,"Tranquilo (a)","practiceA","0"
8,"i",861,10000,"p2",14,3,"Energizado (a)","practiceA","0"
8,"i",950,10000,"p2",12,3,"Relaxado (a)","practiceA","0"
8,"i",716,10000,"p1",6,3,"Alerta","practiceA","0"
8,"i",617,10000,"p1",13,3,"Com bem-estar","practiceA","0"
8,"i",903,10000,"p1",9,3,"Calmo (a)","practiceA","0"
8,"i",461,10000,"p1",4,3,"Sexy","practiceA","0"
8,"i",747,10000,"p2",13,3,"Com bem-estar","practiceA","0"
8,"i",847,10000,"p2",7,3,"Sensual","practiceA","0"
8,"i",1638,10000,"p2",13,3,"Tranquilo (a)","practiceA","0"
8,"i",906,10000,"p2",14,3,"Revigorado (a)","practiceA","0"
8,"i",897,10000,"p1",12,3,"Relaxado (a)","practiceA","0"
8,"i",670,10000,"p1",11,3,"Enjoado (a)","practiceA","0"
8,"i",663,10000,"p2",13,3,"Com bom-humor","practiceA","0"
8,"i",563,10000,"p1",12,3,"Irritado (a)","practiceA","0"
8,"i",883,10000,"p1",13,3,"Com bem-estar","experimentalA","0"
8,"i",957,10000,"p1",14,3,"Nostálgico (a)","experimentalA","0"
8,"i",725,10000,"p2",14,3,"Revigorado (a)","experimentalA","0"
8,"i",907,10000,"p2",13,3,"Com bem-estar","experimentalA","0"
8,"i",603,10000,"p1",4,3,"Sexy","experimentalA","0"
8,"i",797,10000,"p1",9,3,"Calmo (a)","experimentalA","0"
8,"i",593,10000,"p2",14,3,"Energizado (a)","experimentalA","0"
8,"i",876,10000,"p1",13,3,"Tranquilo (a)","experimentalA","0"
8,"i",679,10000,"p1",14,3,"Energizado (a)","experimentalA","0"
8,"i",921,10000,"p2",4,3,"Sexy","experimentalA","0"
8,"i",801,10000,"p1",6,3,"Alerta","experimentalA","0"
8,"i",658,10000,"p1",13,3,"Com bom-humor","experimentalA","0"
8,"i",632,10000,"p2",13,3,"Com bom-humor","experimentalA","0"
8,"i",457,10000,"p1",7,3,"Sensual","experimentalA","0"
8,"i",534,10000,"p2",12,3,"Irritado (a)","experimentalA","0"
8,"i",1142,10000,"p2",12,3,"Relaxado (a)","experimentalA","0"
8,"i",646,10000,"p2",9,3,"Calmo (a)","experimentalA","0"
8,"i",684,10000,"p2",13,3,"Tranquilo (a)","experimentalA","0"
8,"i",492,10000,"p1",14,3,"Revigorado (a)","experimentalA","0"
8,"i",511,10000,"p2",11,3,"Enjoado (a)","experimentalA","0"
8,"i",509,10000,"p1",11,3,"Enjoado (a)","experimentalA","0"
8,"i",480,10000,"p2",14,3,"Nostálgico (a)","experimentalA","0"
8,"i",577,10000,"p2",11,3,"Animado (a)","experimentalA","0"
8,"i",514,10000,"p1",12,3,"Relaxado (a)","experimentalA","0"
8,"i",541,10000,"p2",6,3,"Alerta","experimentalA","0"
8,"i",551,10000,"p1",12,3,"Irritado (a)","experimentalA","0"
8,"i",450,10000,"p2",13,3,"Romântico (a)","experimentalA","0"
8,"i",527,10000,"p2",7,3,"Sensual","experimentalA","0"
8,"i",625,10000,"p1",11,3,"Animado (a)","experimentalA","0"
8,"i",547,10000,"p1",13,3,"Romântico (a)","experimentalA","0"
8,"e",2178,10000,"p1",4,5,"Sexy","practiceB","0"
8,"e",2127,10000,"p1",9,5,"Calmo (a)","practiceB","0"
8,"e",1560,10000,"p1",7,5,"Sensual","practiceB","0"
8,"e",3106,10000,"p1",11,5,"Animado (a)","practiceB","0"
8,"i",1079,10000,"p2",12,5,"Irritado (a)","practiceB","1"
8,"e",1547,10000,"p2",11,5,"Enjoado (a)","practiceB","0"
8,"e",997,10000,"p2",13,5,"Com bom-humor","practiceB","0"
8,"e",792,10000,"p2",13,5,"Romântico (a)","practiceB","0"
8,"e",2331,10000,"p2",6,5,"Alerta","practiceB","0"
8,"e",587,10000,"p2",14,5,"Revigorado (a)","practiceB","0"
8,"e",1216,10000,"p2",13,5,"Tranquilo (a)","practiceB","0"
8,"e",1151,10000,"p2",14,5,"Energizado (a)","practiceB","0"
8,"e",1008,10000,"p1",12,5,"Relaxado (a)","practiceB","0"
8,"e",835,10000,"p2",7,5,"Sensual","practiceB","0"
8,"e",746,10000,"p2",12,5,"Relaxado (a)","practiceB","0"
8,"e",663,10000,"p2",13,5,"Com bem-estar","practiceB","0"
8,"e",842,10000,"p1",6,5,"Alerta","practiceB","0"
8,"e",564,10000,"p2",11,5,"Animado (a)","practiceB","0"
8,"e",687,10000,"p1",14,5,"Nostálgico (a)","practiceB","0"
8,"e",747,10000,"p1",14,5,"Energizado (a)","practiceB","0"
8,"e",727,10000,"p2",9,5,"Calmo (a)","practiceB","0"
8,"e",786,10000,"p1",14,5,"Revigorado (a)","practiceB","0"
8,"e",623,10000,"p1",13,5,"Com bom-humor","practiceB","0"
8,"e",607,10000,"p1",13,5,"Romântico (a)","practiceB","0"
8,"e",890,10000,"p1",13,5,"Tranquilo (a)","practiceB","0"
8,"e",1021,10000,"p2",14,5,"Nostálgico (a)","practiceB","0"
8,"e",843,10000,"p2",4,5,"Sexy","practiceB","0"
8,"i",1553,10000,"p1",12,5,"Irritado (a)","practiceB","1"
8,"e",767,10000,"p1",11,5,"Enjoado (a)","practiceB","0"
8,"i",1320,10000,"p1",13,5,"Com bem-estar","practiceB","1"
8,"e",1163,10000,"p2",13,5,"Tranquilo (a)","experimentalB","0"
8,"e",673,10000,"p2",14,5,"Energizado (a)","experimentalB","0"
8,"i",729,10000,"p2",12,5,"Irritado (a)","experimentalB","1"
8,"e",889,10000,"p1",14,5,"Energizado (a)","experimentalB","0"
8,"e",922,10000,"p2",4,5,"Sexy","experimentalB","0"
8,"e",941,10000,"p1",13,5,"Com bom-humor","experimentalB","0"
8,"e",556,10000,"p1",4,5,"Sexy","experimentalB","0"
8,"e",678,10000,"p2",14,5,"Revigorado (a)","experimentalB","0"
8,"e",538,10000,"p2",13,5,"Com bom-humor","experimentalB","0"
8,"e",641,10000,"p2",14,5,"Nostálgico (a)","experimentalB","0"
8,"e",699,10000,"p1",12,5,"Irritado (a)","experimentalB","0"
8,"e",689,10000,"p2",9,5,"Calmo (a)","experimentalB","0"
8,"e",628,10000,"p1",13,5,"Com bem-estar","experimentalB","0"
8,"e",690,10000,"p1",14,5,"Nostálgico (a)","experimentalB","0"
8,"e",731,10000,"p1",14,5,"Revigorado (a)","experimentalB","0"
8,"e",499,10000,"p1",13,5,"Romântico (a)","experimentalB","0"
8,"e",479,10000,"p2",13,5,"Romântico (a)","experimentalB","0"
8,"e",460,10000,"p2",13,5,"Com bem-estar","experimentalB","0"
8,"e",938,10000,"p1",9,5,"Calmo (a)","experimentalB","0"
8,"e",518,10000,"p1",12,5,"Relaxado (a)","experimentalB","0"
8,"e",436,10000,"p2",12,5,"Relaxado (a)","experimentalB","0"
8,"e",739,10000,"p1",11,5,"Enjoado (a)","experimentalB","0"
8,"e",513,10000,"p1",7,5,"Sensual","experimentalB","0"
8,"e",750,10000,"p2",6,5,"Alerta","experimentalB","0"
8,"e",703,10000,"p1",6,5,"Alerta","experimentalB","0"
8,"e",633,10000,"p2",7,5,"Sensual","experimentalB","0"
8,"e",698,10000,"p1",11,5,"Animado (a)","experimentalB","0"
8,"e",934,10000,"p2",11,5,"Enjoado (a)","experimentalB","0"
8,"e",578,10000,"p2",11,5,"Animado (a)","experimentalB","0"
8,"e",1090,10000,"p1",13,5,"Tranquilo (a)","experimentalB","0"
3,"e",1196,10000,"p2",4,3,"Sexy","practiceA","1"
3,"e",1191,10000,"p1",11,3,"Animado (a)","practiceA","1"
3,"i",863,10000,"p1",12,3,"Irritado (a)","practiceA","0"
3,"e",1037,10000,"p1",12,3,"Relaxado (a)","practiceA","1"
3,"e",597,10000,"p1",9,3,"Calmo (a)","practiceA","1"
3,"e",657,10000,"p1",13,3,"Com bom-humor","practiceA","1"
3,"e",793,10000,"p1",13,3,"Tranquilo (a)","practiceA","1"
3,"e",1023,10000,"p2",12,3,"Relaxado (a)","practiceA","1"
3,"i",679,10000,"p2",12,3,"Irritado (a)","practiceA","0"
3,"e",954,10000,"p1",14,3,"Energizado (a)","practiceA","1"
3,"i",729,10000,"p1",4,3,"Sexy","practiceA","0"
3,"i",714,10000,"p1",14,3,"Revigorado (a)","practiceA","0"
3,"e",760,10000,"p1",14,3,"Nostálgico (a)","practiceA","1"
3,"e",1117,10000,"p2",14,3,"Nostálgico (a)","practiceA","1"
3,"e",792,10000,"p2",6,3,"Alerta","practiceA","1"
3,"e",827,10000,"p2",13,3,"Romântico (a)","practiceA","1"
3,"e",641,10000,"p2",14,3,"Revigorado (a)","practiceA","1"
3,"e",586,10000,"p2",13,3,"Com bom-humor","practiceA","1"
3,"i",772,10000,"p2",13,3,"Tranquilo (a)","practiceA","0"
3,"i",880,10000,"p1",11,3,"Enjoado (a)","practiceA","0"
3,"e",681,10000,"p1",7,3,"Sensual","practiceA","1"
3,"i",1274,10000,"p2",11,3,"Enjoado (a)","practiceA","0"
3,"e",791,10000,"p1",13,3,"Romântico (a)","practiceA","1"
3,"i",1781,10000,"p2",14,3,"Energizado (a)","practiceA","0"
3,"e",658,10000,"p2",9,3,"Calmo (a)","practiceA","1"
3,"e",1296,10000,"p1",13,3,"Com bem-estar","practiceA","1"
3,"i",717,10000,"p1",6,3,"Alerta","practiceA","0"
3,"e",978,10000,"p2",11,3,"Animado (a)","practiceA","1"
3,"e",974,10000,"p2",13,3,"Com bem-estar","practiceA","1"
3,"i",776,10000,"p2",7,3,"Sensual","practiceA","0"
3,"e",993,10000,"p2",13,3,"Com bom-humor","experimentalA","1"
3,"i",841,10000,"p2",6,3,"Alerta","experimentalA","0"
3,"i",790,10000,"p1",6,3,"Alerta","experimentalA","0"
3,"e",685,10000,"p1",14,3,"Revigorado (a)","experimentalA","1"
3,"e",1267,10000,"p2",13,3,"Romântico (a)","experimentalA","1"
3,"e",781,10000,"p2",14,3,"Nostálgico (a)","experimentalA","1"
3,"e",595,10000,"p1",14,3,"Nostálgico (a)","experimentalA","1"
3,"i",726,10000,"p2",13,3,"Tranquilo (a)","experimentalA","0"
3,"i",1079,10000,"p2",11,3,"Enjoado (a)","experimentalA","0"
3,"i",849,10000,"p2",4,3,"Sexy","experimentalA","0"
3,"i",1196,10000,"p2",7,3,"Sensual","experimentalA","0"
3,"e",709,10000,"p2",12,3,"Relaxado (a)","experimentalA","1"
3,"e",794,10000,"p1",4,3,"Sexy","experimentalA","1"
3,"e",741,10000,"p1",7,3,"Sensual","experimentalA","1"
3,"e",777,10000,"p1",13,3,"Tranquilo (a)","experimentalA","1"
3,"e",758,10000,"p1",11,3,"Animado (a)","experimentalA","1"
3,"i",738,10000,"p2",14,3,"Revigorado (a)","experimentalA","0"
3,"i",1404,10000,"p1",13,3,"Romântico (a)","experimentalA","0"
3,"i",946,10000,"p1",11,3,"Enjoado (a)","experimentalA","0"
3,"e",661,10000,"p1",12,3,"Relaxado (a)","experimentalA","1"
3,"i",655,10000,"p1",13,3,"Com bom-humor","experimentalA","0"
3,"e",814,10000,"p1",9,3,"Calmo (a)","experimentalA","1"
3,"i",831,10000,"p2",12,3,"Irritado (a)","experimentalA","0"
3,"i",649,10000,"p1",12,3,"Irritado (a)","experimentalA","0"
3,"i",1269,10000,"p2",11,3,"Animado (a)","experimentalA","0"
3,"e",789,10000,"p1",13,3,"Com bem-estar","experimentalA","1"
3,"e",970,10000,"p2",13,3,"Com bem-estar","experimentalA","1"
3,"e",828,10000,"p2",9,3,"Calmo (a)","experimentalA","1"
3,"e",804,10000,"p1",14,3,"Energizado (a)","experimentalA","1"
3,"i",718,10000,"p2",14,3,"Energizado (a)","experimentalA","0"
3,"e",793,10000,"p1",14,5,"Nostálgico (a)","practiceB","0"
3,"e",953,10000,"p1",11,5,"Enjoado (a)","practiceB","0"
3,"e",666,10000,"p1",6,5,"Alerta","practiceB","0"
3,"e",1677,10000,"p2",13,5,"Romântico (a)","practiceB","0"
3,"i",1601,10000,"p1",13,5,"Com bem-estar","practiceB","1"
3,"e",789,10000,"p2",12,5,"Irritado (a)","practiceB","0"
3,"e",1428,10000,"p1",13,5,"Romântico (a)","practiceB","0"
3,"e",847,10000,"p1",11,5,"Animado (a)","practiceB","0"
3,"e",809,10000,"p2",9,5,"Calmo (a)","practiceB","0"
3,"e",594,10000,"p2",14,5,"Revigorado (a)","practiceB","0"
3,"e",707,10000,"p1",12,5,"Irritado (a)","practiceB","0"
3,"e",557,10000,"p1",12,5,"Relaxado (a)","practiceB","0"
3,"e",515,10000,"p2",12,5,"Relaxado (a)","practiceB","0"
3,"i",870,10000,"p1",13,5,"Com bom-humor","practiceB","1"
3,"i",494,10000,"p1",14,5,"Revigorado (a)","practiceB","1"
3,"i",1386,10000,"p2",4,5,"Sexy","practiceB","1"
3,"i",2217,10000,"p2",13,5,"Com bom-humor","practiceB","1"
3,"i",1143,10000,"p2",13,5,"Com bem-estar","practiceB","1"
3,"e",2023,10000,"p2",11,5,"Enjoado (a)","practiceB","0"
3,"i",2286,10000,"p1",9,5,"Calmo (a)","practiceB","1"
3,"e",927,10000,"p2",6,5,"Alerta","practiceB","0"
3,"e",904,10000,"p2",14,5,"Energizado (a)","practiceB","0"
3,"i",832,10000,"p1",13,5,"Tranquilo (a)","practiceB","1"
3,"i",627,10000,"p2",13,5,"Tranquilo (a)","practiceB","1"
3,"e",856,10000,"p2",11,5,"Animado (a)","practiceB","0"
3,"e",1000,10000,"p1",14,5,"Energizado (a)","practiceB","0"
3,"e",715,10000,"p1",7,5,"Sensual","practiceB","0"
3,"e",607,10000,"p1",4,5,"Sexy","practiceB","0"
3,"e",603,10000,"p2",7,5,"Sensual","practiceB","0"
3,"i",705,10000,"p2",14,5,"Nostálgico (a)","practiceB","1"
3,"i",1588,10000,"p2",12,5,"Irritado (a)","experimentalB","1"
3,"i",758,10000,"p1",6,5,"Alerta","experimentalB","1"
3,"i",555,10000,"p1",12,5,"Irritado (a)","experimentalB","1"
3,"e",1256,10000,"p2",4,5,"Sexy","experimentalB","0"
3,"i",892,10000,"p2",14,5,"Revigorado (a)","experimentalB","1"
3,"i",708,10000,"p2",13,5,"Romântico (a)","experimentalB","1"
3,"e",750,10000,"p1",13,5,"Com bem-estar","experimentalB","0"
3,"i",856,10000,"p2",9,5,"Calmo (a)","experimentalB","1"
3,"e",1033,10000,"p1",11,5,"Enjoado (a)","experimentalB","0"
3,"e",679,10000,"p1",14,5,"Revigorado (a)","experimentalB","0"
3,"e",766,10000,"p2",7,5,"Sensual","experimentalB","0"
3,"e",996,10000,"p1",4,5,"Sexy","experimentalB","0"
3,"i",822,10000,"p2",13,5,"Com bom-humor","experimentalB","1"
3,"e",685,10000,"p2",6,5,"Alerta","experimentalB","0"
3,"i",757,10000,"p1",14,5,"Nostálgico (a)","experimentalB","1"
3,"e",719,10000,"p1",7,5,"Sensual","experimentalB","0"
3,"e",1003,10000,"p1",13,5,"Com bom-humor","experimentalB","0"
3,"i",652,10000,"p1",9,5,"Calmo (a)","experimentalB","1"
3,"i",1452,10000,"p2",12,5,"Relaxado (a)","experimentalB","1"
3,"e",780,10000,"p2",11,5,"Animado (a)","experimentalB","0"
3,"i",745,10000,"p1",12,5,"Relaxado (a)","experimentalB","1"
3,"e",645,10000,"p2",11,5,"Enjoado (a)","experimentalB","0"
3,"i",703,10000,"p2",13,5,"Tranquilo (a)","experimentalB","1"
3,"e",595,10000,"p2",14,5,"Energizado (a)","experimentalB","0"
3,"e",594,10000,"p1",13,5,"Tranquilo (a)","experimentalB","0"
3,"e",748,10000,"p1",14,5,"Energizado (a)","experimentalB","0"
3,"i",950,10000,"p2",14,5,"Nostálgico (a)","experimentalB","1"
3,"e",705,10000,"p1",11,5,"Animado (a)","experimentalB","0"
3,"i",790,10000,"p2",13,5,"Com bem-estar","experimentalB","1"
3,"i",907,10000,"p1",13,5,"Romântico (a)","experimentalB","1"
7,"E",1967,10000,"p1",11,3,"Animado (a)","practiceA","1"
7,"I",676,10000,"p1",7,3,"Sensual","practiceA","0"
7,"E",732,10000,"p1",9,3,"Calmo (a)","practiceA","1"
7,"E",861,10000,"p2",11,3,"Animado (a)","practiceA","1"
7,"I",746,10000,"p1",14,3,"Energizado (a)","practiceA","0"
7,"E",612,10000,"p2",9,3,"Calmo (a)","practiceA","1"
7,"I",570,10000,"p2",13,3,"Romântico (a)","practiceA","0"
7,"I",673,10000,"p2",14,3,"Energizado (a)","practiceA","0"
7,"I",546,10000,"p2",4,3,"Sexy","practiceA","0"
7,"I",644,10000,"p2",11,3,"Enjoado (a)","practiceA","0"
7,"E",744,10000,"p1",14,3,"Nostálgico (a)","practiceA","1"
7,"E",1372,10000,"p1",13,3,"Com bom-humor","practiceA","1"
7,"I",769,10000,"p2",6,3,"Alerta","practiceA","0"
7,"I",648,10000,"p2",12,3,"Irritado (a)","practiceA","0"
7,"E",1000,10000,"p2",14,3,"Nostálgico (a)","practiceA","1"
7,"E",824,10000,"p1",12,3,"Relaxado (a)","practiceA","1"
7,"I",583,10000,"p1",6,3,"Alerta","practiceA","0"
7,"I",887,10000,"p2",14,3,"Revigorado (a)","practiceA","0"
7,"E",699,10000,"p2",13,3,"Com bem-estar","practiceA","1"
7,"I",672,10000,"p1",4,3,"Sexy","practiceA","0"
7,"E",714,10000,"p2",13,3,"Com bom-humor","practiceA","1"
7,"I",729,10000,"p1",13,3,"Com bem-estar","practiceA","0"
7,"I",1477,10000,"p2",7,3,"Sensual","practiceA","0"
7,"E",744,10000,"p2",12,3,"Relaxado (a)","practiceA","1"
7,"I",758,10000,"p1",13,3,"Romântico (a)","practiceA","0"
7,"E",817,10000,"p1",13,3,"Tranquilo (a)","practiceA","1"
7,"I",849,10000,"p1",14,3,"Revigorado (a)","practiceA","0"
7,"I",894,10000,"p1",11,3,"Enjoado (a)","practiceA","0"
7,"I",608,10000,"p1",12,3,"Irritado (a)","practiceA","0"
7,"E",1081,10000,"p2",13,3,"Tranquilo (a)","practiceA","1"
7,"E",629,10000,"p2",13,3,"Com bem-estar","experimentalA","1"
7,"E",456,10000,"p1",13,3,"Com bem-estar","experimentalA","1"
7,"E",753,10000,"p2",12,3,"Relaxado (a)","experimentalA","1"
7,"E",673,10000,"p1",13,3,"Com bom-humor","experimentalA","1"
7,"I",604,10000,"p2",7,3,"Sensual","experimentalA","0"
7,"E",618,10000,"p1",12,3,"Relaxado (a)","experimentalA","1"
7,"E",712,10000,"p1",14,3,"Nostálgico (a)","experimentalA","1"
7,"E",612,10000,"p2",9,3,"Calmo (a)","experimentalA","1"
7,"I",646,10000,"p2",14,3,"Energizado (a)","experimentalA","0"
7,"I",577,10000,"p2",12,3,"Irritado (a)","experimentalA","0"
7,"I",491,10000,"p1",4,3,"Sexy","experimentalA","0"
7,"I",743,10000,"p1",12,3,"Irritado (a)","experimentalA","0"
7,"I",923,10000,"p2",11,3,"Enjoado (a)","experimentalA","0"
7,"E",563,10000,"p2",13,3,"Com bom-humor","experimentalA","1"
7,"I",624,10000,"p2",13,3,"Romântico (a)","experimentalA","0"
7,"I",583,10000,"p1",14,3,"Energizado (a)","experimentalA","0"
7,"E",560,10000,"p1",9,3,"Calmo (a)","experimentalA","1"
7,"E",490,10000,"p2",11,3,"Animado (a)","experimentalA","1"
7,"I",588,10000,"p1",6,3,"Alerta","experimentalA","0"
7,"I",471,10000,"p2",6,3,"Alerta","experimentalA","0"
7,"I",1106,10000,"p2",14,3,"Revigorado (a)","experimentalA","0"
7,"E",940,10000,"p1",13,3,"Tranquilo (a)","experimentalA","1"
7,"I",599,10000,"p1",13,3,"Romântico (a)","experimentalA","0"
7,"I",738,10000,"p1",14,3,"Revigorado (a)","experimentalA","0"
7,"I",600,10000,"p1",7,3,"Sensual","experimentalA","0"
7,"I",513,10000,"p2",14,3,"Nostálgico (a)","experimentalA","0"
7,"I",763,10000,"p2",13,3,"Tranquilo (a)","experimentalA","0"
7,"E",782,10000,"p1",11,3,"Animado (a)","experimentalA","1"
7,"I",569,10000,"p2",4,3,"Sexy","experimentalA","0"
7,"I",692,10000,"p1",11,3,"Enjoado (a)","experimentalA","0"
7,"E",1184,10000,"p1",4,5,"Sexy","practiceB","0"
7,"E",3410,10000,"p1",11,5,"Enjoado (a)","practiceB","0"
7,"E",1648,10000,"p2",7,5,"Sensual","practiceB","0"
7,"E",1787,10000,"p2",4,5,"Sexy","practiceB","0"
7,"E",3867,10000,"p2",11,5,"Animado (a)","practiceB","0"
7,"I",1936,10000,"p2",14,5,"Nostálgico (a)","practiceB","1"
7,"I",1076,10000,"p1",14,5,"Nostálgico (a)","practiceB","1"
7,"E",1244,10000,"p2",6,5,"Alerta","practiceB","0"
7,"E",2566,10000,"p1",14,5,"Revigorado (a)","practiceB","0"
7,"E",2318,10000,"p1",12,5,"Irritado (a)","practiceB","0"
7,"I",886,10000,"p1",13,5,"Com bem-estar","practiceB","1"
7,"I",690,10000,"p1",12,5,"Relaxado (a)","practiceB","1"
7,"I",600,10000,"p2",13,5,"Com bom-humor","practiceB","1"
7,"I",833,10000,"p1",6,5,"Alerta","practiceB","1"
7,"I",576,10000,"p1",11,5,"Animado (a)","practiceB","1"
7,"E",870,10000,"p2",11,5,"Enjoado (a)","practiceB","0"
7,"I",620,10000,"p1",9,5,"Calmo (a)","practiceB","1"
7,"I",625,10000,"p1",7,5,"Sensual","practiceB","1"
7,"E",1234,10000,"p2",12,5,"Irritado (a)","practiceB","0"
7,"I",661,10000,"p2",9,5,"Calmo (a)","practiceB","1"
7,"I",1642,10000,"p1",13,5,"Com bom-humor","practiceB","1"
7,"E",771,10000,"p2",14,5,"Revigorado (a)","practiceB","0"
7,"I",835,10000,"p2",13,5,"Com bem-estar","practiceB","1"
7,"E",873,10000,"p1",13,5,"Romântico (a)","practiceB","0"
7,"E",811,10000,"p1",14,5,"Energizado (a)","practiceB","0"
7,"I",754,10000,"p2",13,5,"Tranquilo (a)","practiceB","1"
7,"E",656,10000,"p2",14,5,"Energizado (a)","practiceB","0"
7,"I",627,10000,"p2",12,5,"Relaxado (a)","practiceB","1"
7,"E",703,10000,"p2",13,5,"Romântico (a)","practiceB","0"
7,"I",874,10000,"p1",13,5,"Tranquilo (a)","practiceB","1"
7,"E",585,10000,"p1",4,5,"Sexy","experimentalB","0"
7,"E",1325,10000,"p1",11,5,"Animado (a)","experimentalB","0"
7,"E",852,10000,"p2",11,5,"Animado (a)","experimentalB","0"
7,"E",796,10000,"p1",13,5,"Romântico (a)","experimentalB","0"
7,"E",628,10000,"p1",6,5,"Alerta","experimentalB","0"
7,"E",593,10000,"p2",12,5,"Irritado (a)","experimentalB","0"
7,"I",698,10000,"p1",9,5,"Calmo (a)","experimentalB","1"
7,"I",686,10000,"p1",13,5,"Com bem-estar","experimentalB","1"
7,"E",686,10000,"p2",11,5,"Enjoado (a)","experimentalB","0"
7,"E",613,10000,"p2",7,5,"Sensual","experimentalB","0"
7,"E",970,10000,"p1",14,5,"Revigorado (a)","experimentalB","0"
7,"E",713,10000,"p1",14,5,"Energizado (a)","experimentalB","0"
7,"I",769,10000,"p1",13,5,"Tranquilo (a)","experimentalB","1"
7,"E",606,10000,"p1",7,5,"Sensual","experimentalB","0"
7,"E",681,10000,"p1",12,5,"Irritado (a)","experimentalB","0"
7,"I",835,10000,"p2",13,5,"Com bem-estar","experimentalB","1"
7,"I",911,10000,"p2",6,5,"Alerta","experimentalB","1"
7,"I",737,10000,"p2",13,5,"Romântico (a)","experimentalB","1"
7,"I",968,10000,"p2",12,5,"Relaxado (a)","experimentalB","1"
7,"I",677,10000,"p1",13,5,"Com bom-humor","experimentalB","1"
7,"I",703,10000,"p1",14,5,"Nostálgico (a)","experimentalB","1"
7,"I",634,10000,"p1",12,5,"Relaxado (a)","experimentalB","1"
7,"E",864,10000,"p2",14,5,"Energizado (a)","experimentalB","0"
7,"E",894,10000,"p2",14,5,"Revigorado (a)","experimentalB","0"
7,"I",614,10000,"p2",13,5,"Com bom-humor","experimentalB","1"
7,"E",717,10000,"p2",4,5,"Sexy","experimentalB","0"
7,"I",607,10000,"p2",9,5,"Calmo (a)","experimentalB","1"
7,"E",832,10000,"p1",11,5,"Enjoado (a)","experimentalB","0"
7,"I",1014,10000,"p2",14,5,"Nostálgico (a)","experimentalB","1"
7,"I",561,10000,"p2",13,5,"Tranquilo (a)","experimentalB","1"
2,"e",1608,10000,"p2",12,3,"Relaxado (a)","practiceA","1"
2,"e",870,10000,"p1",14,3,"Revigorado (a)","practiceA","1"
2,"e",566,10000,"p1",13,3,"Tranquilo (a)","practiceA","1"
2,"i",851,10000,"p2",11,3,"Enjoado (a)","practiceA","0"
2,"e",936,10000,"p2",9,3,"Calmo (a)","practiceA","1"
2,"i",826,10000,"p1",11,3,"Animado (a)","practiceA","0"
2,"i",958,10000,"p2",14,3,"Revigorado (a)","practiceA","0"
2,"i",900,10000,"p2",12,3,"Irritado (a)","practiceA","0"
2,"i",848,10000,"p1",12,3,"Irritado (a)","practiceA","0"
2,"i",1913,10000,"p2",13,3,"Romântico (a)","practiceA","0"
2,"e",718,10000,"p1",13,3,"Com bem-estar","practiceA","1"
2,"e",512,10000,"p1",12,3,"Relaxado (a)","practiceA","1"
2,"e",565,10000,"p1",9,3,"Calmo (a)","practiceA","1"
2,"e",710,10000,"p2",7,3,"Sensual","practiceA","1"
2,"i",1071,10000,"p2",6,3,"Alerta","practiceA","0"
2,"e",963,10000,"p1",13,3,"Romântico (a)","practiceA","1"
2,"e",668,10000,"p2",13,3,"Com bem-estar","practiceA","1"
2,"i",1312,10000,"p2",11,3,"Animado (a)","practiceA","0"
2,"e",736,10000,"p2",14,3,"Nostálgico (a)","practiceA","1"
2,"e",748,10000,"p1",13,3,"Com bom-humor","practiceA","1"
2,"i",722,10000,"p1",4,3,"Sexy","practiceA","0"
2,"e",889,10000,"p1",14,3,"Nostálgico (a)","practiceA","1"
2,"e",785,10000,"p2",13,3,"Tranquilo (a)","practiceA","1"
2,"e",514,10000,"p2",14,3,"Energizado (a)","practiceA","1"
2,"i",668,10000,"p1",7,3,"Sensual","practiceA","0"
2,"i",614,10000,"p1",6,3,"Alerta","practiceA","0"
2,"e",808,10000,"p1",14,3,"Energizado (a)","practiceA","1"
2,"i",837,10000,"p1",11,3,"Enjoado (a)","practiceA","0"
2,"i",842,10000,"p2",4,3,"Sexy","practiceA","0"
2,"e",611,10000,"p2",13,3,"Com bom-humor","practiceA","1"
2,"i",774,10000,"p1",12,3,"Irritado (a)","experimentalA","0"
2,"i",950,10000,"p2",6,3,"Alerta","experimentalA","0"
2,"i",708,10000,"p2",14,3,"Revigorado (a)","experimentalA","0"
2,"e",650,10000,"p2",13,3,"Romântico (a)","experimentalA","1"
2,"i",720,10000,"p1",4,3,"Sexy","experimentalA","0"
2,"i",765,10000,"p1",7,3,"Sensual","experimentalA","0"
2,"i",698,10000,"p1",14,3,"Nostálgico (a)","experimentalA","0"
2,"i",764,10000,"p1",6,3,"Alerta","experimentalA","0"
2,"e",848,10000,"p2",13,3,"Com bom-humor","experimentalA","1"
2,"e",556,10000,"p1",11,3,"Animado (a)","experimentalA","1"
2,"e",563,10000,"p2",13,3,"Com bem-estar","experimentalA","1"
2,"i",588,10000,"p1",11,3,"Enjoado (a)","experimentalA","0"
2,"e",933,10000,"p2",14,3,"Energizado (a)","experimentalA","1"
2,"e",910,10000,"p1",13,3,"Com bom-humor","experimentalA","1"
2,"e",618,10000,"p1",14,3,"Energizado (a)","experimentalA","1"
2,"i",714,10000,"p2",12,3,"Relaxado (a)","experimentalA","0"
2,"e",714,10000,"p2",13,3,"Tranquilo (a)","experimentalA","1"
2,"e",497,10000,"p2",12,3,"Irritado (a)","experimentalA","1"
2,"e",615,10000,"p2",14,3,"Nostálgico (a)","experimentalA","1"
2,"e",675,10000,"p1",9,3,"Calmo (a)","experimentalA","1"
2,"e",566,10000,"p1",12,3,"Relaxado (a)","experimentalA","1"
2,"e",544,10000,"p1",13,3,"Romântico (a)","experimentalA","1"
2,"e",669,10000,"p2",4,3,"Sexy","experimentalA","1"
2,"e",745,10000,"p2",9,3,"Calmo (a)","experimentalA","1"
2,"i",625,10000,"p2",7,3,"Sensual","experimentalA","0"
2,"e",674,10000,"p1",13,3,"Tranquilo (a)","experimentalA","1"
2,"e",912,10000,"p1",14,3,"Revigorado (a)","experimentalA","1"
2,"i",784,10000,"p2",11,3,"Enjoado (a)","experimentalA","0"
2,"e",656,10000,"p1",13,3,"Com bem-estar","experimentalA","1"
2,"e",1138,10000,"p2",11,3,"Animado (a)","experimentalA","1"
2,"i",1826,10000,"p2",6,5,"Alerta","practiceB","1"
2,"e",1879,10000,"p2",14,5,"Revigorado (a)","practiceB","0"
2,"i",2259,10000,"p2",13,5,"Com bem-estar","practiceB","1"
2,"i",1482,10000,"p2",14,5,"Nostálgico (a)","practiceB","1"
2,"e",1862,10000,"p1",11,5,"Animado (a)","practiceB","0"
2,"i",1436,10000,"p1",13,5,"Tranquilo (a)","practiceB","1"
2,"i",1317,10000,"p1",13,5,"Com bem-estar","practiceB","1"
2,"i",1400,10000,"p1",12,5,"Relaxado (a)","practiceB","1"
2,"e",2053,10000,"p1",7,5,"Sensual","practiceB","0"
2,"e",792,10000,"p2",4,5,"Sexy","practiceB","0"
2,"i",863,10000,"p1",9,5,"Calmo (a)","practiceB","1"
2,"e",772,10000,"p2",7,5,"Sensual","practiceB","0"
2,"i",1188,10000,"p1",13,5,"Romântico (a)","practiceB","1"
2,"i",1029,10000,"p2",13,5,"Romântico (a)","practiceB","1"
2,"e",842,10000,"p1",11,5,"Enjoado (a)","practiceB","0"
2,"e",553,10000,"p2",11,5,"Enjoado (a)","practiceB","0"
2,"e",764,10000,"p2",11,5,"Animado (a)","practiceB","0"
2,"e",652,10000,"p2",14,5,"Energizado (a)","practiceB","0"
2,"e",816,10000,"p1",12,5,"Irritado (a)","practiceB","0"
2,"e",718,10000,"p1",14,5,"Energizado (a)","practiceB","0"
2,"e",617,10000,"p1",6,5,"Alerta","practiceB","0"
2,"i",695,10000,"p2",13,5,"Com bom-humor","practiceB","1"
2,"i",711,10000,"p2",12,5,"Relaxado (a)","practiceB","1"
2,"i",432,10000,"p2",12,5,"Irritado (a)","practiceB","1"
2,"i",787,10000,"p2",13,5,"Tranquilo (a)","practiceB","1"
2,"i",951,10000,"p2",9,5,"Calmo (a)","practiceB","1"
2,"e",709,10000,"p1",4,5,"Sexy","practiceB","0"
2,"e",690,10000,"p1",14,5,"Nostálgico (a)","practiceB","0"
2,"i",876,10000,"p1",13,5,"Com bom-humor","practiceB","1"
2,"i",898,10000,"p1",14,5,"Revigorado (a)","practiceB","1"
2,"e",784,10000,"p1",6,5,"Alerta","experimentalB","0"
2,"e",998,10000,"p1",11,5,"Animado (a)","experimentalB","0"
2,"i",619,10000,"p1",9,5,"Calmo (a)","experimentalB","1"
2,"i",511,10000,"p1",13,5,"Com bem-estar","experimentalB","1"
2,"i",613,10000,"p2",9,5,"Calmo (a)","experimentalB","1"
2,"e",694,10000,"p2",7,5,"Sensual","experimentalB","0"
2,"i",1278,10000,"p1",12,5,"Relaxado (a)","experimentalB","1"
2,"i",565,10000,"p1",11,5,"Enjoado (a)","experimentalB","1"
2,"i",1581,10000,"p2",13,5,"Com bem-estar","experimentalB","1"
2,"i",700,10000,"p2",12,5,"Relaxado (a)","experimentalB","1"
2,"e",649,10000,"p1",4,5,"Sexy","experimentalB","0"
2,"i",760,10000,"p1",13,5,"Tranquilo (a)","experimentalB","1"
2,"e",658,10000,"p2",11,5,"Animado (a)","experimentalB","0"
2,"i",952,10000,"p1",13,5,"Romântico (a)","experimentalB","1"
2,"e",872,10000,"p2",12,5,"Irritado (a)","experimentalB","0"
2,"i",877,10000,"p2",13,5,"Romântico (a)","experimentalB","1"
2,"e",718,10000,"p2",11,5,"Enjoado (a)","experimentalB","0"
2,"e",679,10000,"p2",13,5,"Com bom-humor","experimentalB","0"
2,"i",671,10000,"p2",14,5,"Nostálgico (a)","experimentalB","1"
2,"i",887,10000,"p1",14,5,"Revigorado (a)","experimentalB","1"
2,"i",576,10000,"p2",4,5,"Sexy","experimentalB","1"
2,"e",833,10000,"p2",6,5,"Alerta","experimentalB","0"
2,"e",685,10000,"p1",12,5,"Irritado (a)","experimentalB","0"
2,"e",901,10000,"p2",14,5,"Revigorado (a)","experimentalB","0"
2,"i",700,10000,"p1",13,5,"Com bom-humor","experimentalB","1"
2,"e",758,10000,"p1",7,5,"Sensual","experimentalB","0"
2,"i",687,10000,"p2",13,5,"Tranquilo (a)","experimentalB","1"
2,"i",699,10000,"p1",14,5,"Nostálgico (a)","experimentalB","1"
2,"e",671,10000,"p2",14,5,"Energizado (a)","experimentalB","0"
2,"i",609,10000,"p1",14,5,"Energizado (a)","experimentalB","1"
6,"I",4147,10000,"p2",6,3,"Alerta","practiceA","0"
6,"I",1924,10000,"p2",11,3,"Animado (a)","practiceA","0"
6,"E",957,10000,"p2",13,3,"Tranquilo (a)","practiceA","1"
6,"I",694,10000,"p2",14,3,"Energizado (a)","practiceA","0"
6,"I",2350,10000,"p1",13,3,"Romântico (a)","practiceA","0"
6,"I",994,10000,"p2",11,3,"Enjoado (a)","practiceA","0"
6,"I",1093,10000,"p2",7,3,"Sensual","practiceA","0"
6,"E",889,10000,"p1",12,3,"Relaxado (a)","practiceA","1"
6,"E",647,10000,"p2",13,3,"Com bom-humor","practiceA","1"
6,"E",411,10000,"p1",13,3,"Com bom-humor","practiceA","1"
6,"E",600,10000,"p2",9,3,"Calmo (a)","practiceA","1"
6,"I",569,10000,"p1",4,3,"Sexy","practiceA","0"
6,"I",649,10000,"p1",14,3,"Revigorado (a)","practiceA","0"
6,"E",845,10000,"p1",11,3,"Animado (a)","practiceA","1"
6,"E",678,10000,"p2",12,3,"Relaxado (a)","practiceA","1"
6,"I",613,10000,"p1",6,3,"Alerta","practiceA","0"
6,"I",743,10000,"p2",12,3,"Irritado (a)","practiceA","0"
6,"I",623,10000,"p2",4,3,"Sexy","practiceA","0"
6,"I",690,10000,"p1",12,3,"Irritado (a)","practiceA","0"
6,"I",511,10000,"p1",11,3,"Enjoado (a)","practiceA","0"
6,"E",669,10000,"p2",13,3,"Com bem-estar","practiceA","1"
6,"E",544,10000,"p1",13,3,"Tranquilo (a)","practiceA","1"
6,"I",596,10000,"p1",7,3,"Sensual","practiceA","0"
6,"E",788,10000,"p2",14,3,"Nostálgico (a)","practiceA","1"
6,"E",902,10000,"p2",14,3,"Revigorado (a)","practiceA","1"
6,"E",538,10000,"p1",9,3,"Calmo (a)","practiceA","1"
6,"E",786,10000,"p1",14,3,"Energizado (a)","practiceA","1"
6,"I",899,10000,"p2",13,3,"Romântico (a)","practiceA","0"
6,"E",900,10000,"p1",13,3,"Com bem-estar","practiceA","1"
6,"E",629,10000,"p1",14,3,"Nostálgico (a)","practiceA","1"
6,"E",873,10000,"p2",9,3,"Calmo (a)","experimentalA","1"
6,"I",737,10000,"p1",12,3,"Irritado (a)","experimentalA","0"
6,"I",645,10000,"p2",12,3,"Irritado (a)","experimentalA","0"
6,"I",2193,10000,"p2",6,3,"Alerta","experimentalA","0"
6,"E",790,10000,"p2",14,3,"Nostálgico (a)","experimentalA","1"
6,"I",838,10000,"p1",7,3,"Sensual","experimentalA","0"
6,"E",717,10000,"p1",11,3,"Animado (a)","experimentalA","1"
6,"E",683,10000,"p2",13,3,"Tranquilo (a)","experimentalA","1"
6,"I",819,10000,"p1",6,3,"Alerta","experimentalA","0"
6,"I",914,10000,"p2",14,3,"Energizado (a)","experimentalA","0"
6,"I",852,10000,"p1",13,3,"Romântico (a)","experimentalA","0"
6,"I",482,10000,"p1",13,3,"Tranquilo (a)","experimentalA","0"
6,"I",862,10000,"p1",14,3,"Energizado (a)","experimentalA","0"
6,"I",674,10000,"p2",13,3,"Romântico (a)","experimentalA","0"
6,"I",490,10000,"p1",9,3,"Calmo (a)","experimentalA","0"
6,"I",622,10000,"p1",11,3,"Enjoado (a)","experimentalA","0"
6,"E",726,10000,"p2",13,3,"Com bom-humor","experimentalA","1"
6,"E",434,10000,"p1",13,3,"Com bom-humor","experimentalA","1"
6,"E",418,10000,"p2",13,3,"Com bem-estar","experimentalA","1"
6,"I",625,10000,"p1",4,3,"Sexy","experimentalA","0"
6,"I",621,10000,"p2",14,3,"Revigorado (a)","experimentalA","0"
6,"E",793,10000,"p2",11,3,"Animado (a)","experimentalA","1"
6,"E",606,10000,"p1",13,3,"Com bem-estar","experimentalA","1"
6,"I",588,10000,"p1",14,3,"Nostálgico (a)","experimentalA","0"
6,"E",1340,10000,"p1",14,3,"Revigorado (a)","experimentalA","1"
6,"E",796,10000,"p2",12,3,"Relaxado (a)","experimentalA","1"
6,"I",595,10000,"p2",4,3,"Sexy","experimentalA","0"
6,"I",614,10000,"p2",7,3,"Sensual","experimentalA","0"
6,"I",441,10000,"p2",11,3,"Enjoado (a)","experimentalA","0"
6,"E",854,10000,"p1",12,3,"Relaxado (a)","experimentalA","1"
6,"E",2656,10000,"p2",13,5,"Tranquilo (a)","practiceB","0"
6,"E",2189,10000,"p2",11,5,"Enjoado (a)","practiceB","0"
6,"E",750,10000,"p1",11,5,"Enjoado (a)","practiceB","0"
6,"E",557,10000,"p2",12,5,"Irritado (a)","practiceB","0"
6,"I",575,10000,"p2",9,5,"Calmo (a)","practiceB","1"
6,"I",778,10000,"p1",11,5,"Animado (a)","practiceB","1"
6,"I",665,10000,"p1",6,5,"Alerta","practiceB","1"
6,"I",669,10000,"p2",7,5,"Sensual","practiceB","1"
6,"E",684,10000,"p1",7,5,"Sensual","practiceB","0"
6,"I",1085,10000,"p2",13,5,"Com bom-humor","practiceB","1"
6,"E",666,10000,"p2",6,5,"Alerta","practiceB","0"
6,"I",709,10000,"p1",13,5,"Tranquilo (a)","practiceB","1"
6,"I",643,10000,"p2",13,5,"Com bem-estar","practiceB","1"
6,"E",703,10000,"p2",11,5,"Animado (a)","practiceB","0"
6,"I",605,10000,"p1",14,5,"Nostálgico (a)","practiceB","1"
6,"I",1205,10000,"p1",13,5,"Com bem-estar","practiceB","1"
6,"E",1739,10000,"p2",4,5,"Sexy","practiceB","0"
6,"E",1471,10000,"p1",14,5,"Revigorado (a)","practiceB","0"
6,"E",1266,10000,"p2",12,5,"Relaxado (a)","practiceB","0"
6,"E",542,10000,"p2",13,5,"Romântico (a)","practiceB","0"
6,"E",965,10000,"p1",13,5,"Com bom-humor","practiceB","0"
6,"I",1044,10000,"p1",13,5,"Romântico (a)","practiceB","1"
6,"I",755,10000,"p2",14,5,"Energizado (a)","practiceB","1"
6,"I",596,10000,"p1",12,5,"Irritado (a)","practiceB","1"
6,"E",1011,10000,"p2",14,5,"Revigorado (a)","practiceB","0"
6,"E",528,10000,"p1",12,5,"Relaxado (a)","practiceB","0"
6,"I",905,10000,"p1",9,5,"Calmo (a)","practiceB","1"
6,"E",938,10000,"p1",14,5,"Energizado (a)","practiceB","0"
6,"E",1072,10000,"p1",4,5,"Sexy","practiceB","0"
6,"E",1054,10000,"p2",14,5,"Nostálgico (a)","practiceB","0"
6,"E",982,10000,"p1",14,5,"Revigorado (a)","experimentalB","0"
6,"E",806,10000,"p1",11,5,"Enjoado (a)","experimentalB","0"
6,"E",1122,10000,"p2",13,5,"Com bom-humor","experimentalB","0"
6,"I",974,10000,"p2",13,5,"Tranquilo (a)","experimentalB","1"
6,"E",1087,10000,"p2",4,5,"Sexy","experimentalB","0"
6,"I",652,10000,"p1",13,5,"Tranquilo (a)","experimentalB","1"
6,"I",565,10000,"p1",9,5,"Calmo (a)","experimentalB","1"
6,"I",974,10000,"p2",14,5,"Energizado (a)","experimentalB","1"
6,"I",646,10000,"p1",14,5,"Nostálgico (a)","experimentalB","1"
6,"E",763,10000,"p1",7,5,"Sensual","experimentalB","0"
6,"E",805,10000,"p1",13,5,"Romântico (a)","experimentalB","0"
6,"E",599,10000,"p1",12,5,"Irritado (a)","experimentalB","0"
6,"E",634,10000,"p2",11,5,"Enjoado (a)","experimentalB","0"
6,"I",768,10000,"p2",13,5,"Com bem-estar","experimentalB","1"
6,"I",745,10000,"p1",13,5,"Com bem-estar","experimentalB","1"
6,"I",855,10000,"p1",11,5,"Animado (a)","experimentalB","1"
6,"I",390,10000,"p1",14,5,"Energizado (a)","experimentalB","1"
6,"I",562,10000,"p2",13,5,"Romântico (a)","experimentalB","1"
6,"I",500,10000,"p2",6,5,"Alerta","experimentalB","1"
6,"I",601,10000,"p1",12,5,"Relaxado (a)","experimentalB","1"
6,"E",658,10000,"p2",7,5,"Sensual","experimentalB","0"
6,"I",723,10000,"p2",12,5,"Relaxado (a)","experimentalB","1"
6,"I",545,10000,"p2",14,5,"Revigorado (a)","experimentalB","1"
6,"I",507,10000,"p2",12,5,"Irritado (a)","experimentalB","1"
6,"I",659,10000,"p2",14,5,"Nostálgico (a)","experimentalB","1"
6,"E",856,10000,"p2",11,5,"Animado (a)","experimentalB","0"
6,"E",990,10000,"p1",13,5,"Com bom-humor","experimentalB","0"
6,"I",639,10000,"p1",4,5,"Sexy","experimentalB","1"
6,"I",585,10000,"p1",6,5,"Alerta","experimentalB","1"
6,"I",705,10000,"p2",9,5,"Calmo (a)","experimentalB","1"
