"participant","tecla","latency","tempo_pergunta","posicao","tamanho_palavra","bloco","palavra","correct","block"
18,"e",685,10000,"p1",5,3,"Limpa","1","practiceA"
18,"e",600,10000,"p2",5,3,"Limpa","1","experimentalA"
18,"e",779,10000,"p2",5,5,"Limpa","0","practiceB"
18,"e",500,10000,"p1",5,5,"Limpa","0","experimentalB"
20,"e",977,10000,"p1",5,3,"Limpa","1","practiceA"
20,"e",911,10000,"p2",5,3,"Limpa","1","experimentalA"
20,"e",726,10000,"p1",5,5,"Limpa","0","practiceB"
20,"e",1234,10000,"p2",5,5,"Limpa","0","experimentalB"
21,"E",1020,10000,"p2",5,3,"Limpa","1","practiceA"
21,"E",903,10000,"p1",5,3,"Limpa","1","experimentalA"
21,"E",1449,10000,"p2",5,5,"Limpa","0","practiceB"
21,"E",499,10000,"p1",5,5,"Limpa","0","experimentalB"
18,"e",685,10000,"p1",5,3,"Limpa","1","practiceA"
18,"e",600,10000,"p2",5,3,"Limpa","1","experimentalA"
18,"e",779,10000,"p2",5,5,"Limpa","0","practiceB"
18,"e",500,10000,"p1",5,5,"Limpa","0","experimentalB"
20,"e",977,10000,"p1",5,3,"Limpa","1","practiceA"
20,"e",911,10000,"p2",5,3,"Limpa","1","experimentalA"
20,"e",726,10000,"p1",5,5,"Limpa","0","practiceB"
20,"e",1234,10000,"p2",5,5,"Limpa","0","experimentalB"
21,"E",1020,10000,"p2",5,3,"Limpa","1","practiceA"
21,"E",903,10000,"p1",5,3,"Limpa","1","experimentalA"
21,"E",1449,10000,"p2",5,5,"Limpa","0","practiceB"
21,"E",499,10000,"p1",5,5,"Limpa","0","experimentalB"
