"participant","tecla","latency","tempo_pergunta","posicao","tamanho_palavra","bloco","palavra","correct","block"
18,"i",798,10000,"p2",7,3,"Sensual","0","practiceA"
18,"i",1313,10000,"p1",7,3,"Sensual","0","experimentalA"
18,"i",869,10000,"p1",7,5,"Sensual","1","practiceB"
18,"i",914,10000,"p2",7,5,"Sensual","1","experimentalB"
20,"i",1036,10000,"p2",7,3,"Sensual","0","practiceA"
20,"i",1251,10000,"p1",7,3,"Sensual","0","experimentalA"
20,"i",805,10000,"p1",7,5,"Sensual","1","practiceB"
20,"i",960,10000,"p2",7,5,"Sensual","1","experimentalB"
21,"I",883,10000,"p1",7,3,"Sensual","0","practiceA"
21,"I",742,10000,"p2",7,3,"Sensual","0","experimentalA"
21,"I",847,10000,"p1",7,5,"Sensual","1","practiceB"
21,"E",874,10000,"p2",7,5,"Sensual","0","experimentalB"
18,"i",798,10000,"p2",7,3,"Sensual","0","practiceA"
18,"i",1313,10000,"p1",7,3,"Sensual","0","experimentalA"
18,"i",869,10000,"p1",7,5,"Sensual","1","practiceB"
18,"i",914,10000,"p2",7,5,"Sensual","1","experimentalB"
20,"i",1036,10000,"p2",7,3,"Sensual","0","practiceA"
20,"i",1251,10000,"p1",7,3,"Sensual","0","experimentalA"
20,"i",805,10000,"p1",7,5,"Sensual","1","practiceB"
20,"i",960,10000,"p2",7,5,"Sensual","1","experimentalB"
21,"I",883,10000,"p1",7,3,"Sensual","0","practiceA"
21,"I",742,10000,"p2",7,3,"Sensual","0","experimentalA"
21,"I",847,10000,"p1",7,5,"Sensual","1","practiceB"
21,"E",874,10000,"p2",7,5,"Sensual","0","experimentalB"
