"participant","tecla","latency","tempo_pergunta","posicao","tamanho_palavra","bloco","palavra","block","correct"
9,"e",923,10000,"p2",14,3,"Revigorado (a)","practiceA","1"
9,"e",1194,10000,"p1",14,3,"Revigorado (a)","practiceA","1"
9,"e",915,10000,"p2",14,3,"Revigorado (a)","experimentalA","1"
9,"e",1316,10000,"p1",14,3,"Revigorado (a)","experimentalA","1"
9,"i",913,10000,"p1",14,5,"Revigorado (a)","practiceB","1"
9,"i",1892,10000,"p2",14,5,"Revigorado (a)","practiceB","1"
9,"e",851,10000,"p1",14,5,"Revigorado (a)","experimentalB","0"
9,"e",662,10000,"p2",14,5,"Revigorado (a)","experimentalB","0"
6,"e",819,10000,"p1",14,3,"Revigorado (a)","practiceA","1"
6,"e",634,10000,"p2",14,3,"Revigorado (a)","practiceA","1"
6,"i",540,10000,"p2",14,3,"Revigorado (a)","experimentalA","0"
6,"e",570,10000,"p1",14,3,"Revigorado (a)","experimentalA","1"
6,"i",498,10000,"p2",14,5,"Revigorado (a)","practiceB","1"
6,"e",888,10000,"p1",14,5,"Revigorado (a)","practiceB","0"
6,"i",377,10000,"p2",14,5,"Revigorado (a)","experimentalB","1"
6,"i",494,10000,"p1",14,5,"Revigorado (a)","experimentalB","1"
2,"i",1050,10000,"p2",14,3,"Revigorado (a)","practiceA","0"
2,"e",610,10000,"p1",14,3,"Revigorado (a)","practiceA","1"
2,"e",477,10000,"p2",14,3,"Revigorado (a)","experimentalA","1"
2,"e",605,10000,"p1",14,3,"Revigorado (a)","experimentalA","1"
2,"e",602,10000,"p1",14,5,"Revigorado (a)","practiceB","0"
2,"i",554,10000,"p2",14,5,"Revigorado (a)","practiceB","1"
2,"i",794,10000,"p2",14,5,"Revigorado (a)","experimentalB","1"
2,"i",733,10000,"p1",14,5,"Revigorado (a)","experimentalB","1"
1,"e",703,10000,"p2",14,3,"Revigorado (a)","practiceA","1"
1,"e",845,10000,"p1",14,3,"Revigorado (a)","practiceA","1"
1,"e",1062,10000,"p2",14,3,"Revigorado (a)","experimentalA","1"
1,"e",1086,10000,"p1",14,3,"Revigorado (a)","experimentalA","1"
1,"i",6870,10000,"p2",14,5,"Revigorado (a)","practiceB","1"
1,"i",538,10000,"p1",14,5,"Revigorado (a)","practiceB","1"
1,"i",830,10000,"p1",14,5,"Revigorado (a)","experimentalB","1"
1,"i",821,10000,"p2",14,5,"Revigorado (a)","experimentalB","1"
7,"I",800,10000,"p1",14,3,"Revigorado (a)","practiceA","0"
7,"E",761,10000,"p2",14,3,"Revigorado (a)","practiceA","1"
7,"E",657,10000,"p2",14,3,"Revigorado (a)","experimentalA","1"
7,"E",587,10000,"p1",14,3,"Revigorado (a)","experimentalA","1"
7,"E",1064,10000,"p2",14,5,"Revigorado (a)","practiceB","0"
7,"I",596,10000,"p1",14,5,"Revigorado (a)","practiceB","1"
7,"I",659,10000,"p1",14,5,"Revigorado (a)","experimentalB","1"
7,"I",550,10000,"p2",14,5,"Revigorado (a)","experimentalB","1"
5,"e",726,10000,"p1",14,3,"Revigorado (a)","practiceA","1"
5,"e",594,10000,"p2",14,3,"Revigorado (a)","practiceA","1"
5,"i",988,10000,"p2",14,3,"Revigorado (a)","experimentalA","0"
5,"e",591,10000,"p1",14,3,"Revigorado (a)","experimentalA","1"
5,"i",1657,10000,"p2",14,5,"Revigorado (a)","practiceB","1"
5,"i",595,10000,"p1",14,5,"Revigorado (a)","practiceB","1"
5,"i",699,10000,"p2",14,5,"Revigorado (a)","experimentalB","1"
5,"i",942,10000,"p1",14,5,"Revigorado (a)","experimentalB","1"
3,"e",769,10000,"p2",14,3,"Revigorado (a)","practiceA","1"
3,"e",440,10000,"p1",14,3,"Revigorado (a)","practiceA","1"
3,"e",344,10000,"p2",14,3,"Revigorado (a)","experimentalA","1"
3,"e",600,10000,"p1",14,3,"Revigorado (a)","experimentalA","1"
3,"i",1467,10000,"p1",14,5,"Revigorado (a)","practiceB","1"
3,"i",1009,10000,"p2",14,5,"Revigorado (a)","practiceB","1"
3,"e",500,10000,"p2",14,5,"Revigorado (a)","experimentalB","0"
3,"i",648,10000,"p1",14,5,"Revigorado (a)","experimentalB","1"
8,"i",4404,10000,"p1",14,3,"Revigorado (a)","practiceA","0"
8,"i",2386,10000,"p2",14,3,"Revigorado (a)","practiceA","0"
8,"e",954,10000,"p1",14,3,"Revigorado (a)","experimentalA","1"
8,"e",716,10000,"p2",14,3,"Revigorado (a)","experimentalA","1"
8,"i",985,10000,"p2",14,5,"Revigorado (a)","practiceB","1"
8,"i",1137,10000,"p1",14,5,"Revigorado (a)","practiceB","1"
8,"i",1030,10000,"p1",14,5,"Revigorado (a)","experimentalB","1"
8,"i",782,10000,"p2",14,5,"Revigorado (a)","experimentalB","1"
4,"e",857,10000,"p2",14,3,"Revigorado (a)","practiceA","1"
4,"e",2284,10000,"p1",14,3,"Revigorado (a)","practiceA","1"
4,"e",1027,10000,"p1",14,3,"Revigorado (a)","experimentalA","1"
4,"e",752,10000,"p2",14,3,"Revigorado (a)","experimentalA","1"
4,"i",1023,10000,"p2",14,5,"Revigorado (a)","practiceB","1"
4,"i",1001,10000,"p1",14,5,"Revigorado (a)","practiceB","1"
4,"i",956,10000,"p1",14,5,"Revigorado (a)","experimentalB","1"
4,"i",895,10000,"p2",14,5,"Revigorado (a)","experimentalB","1"
10,"i",1350,10000,"p1",14,3,"Revigorado (a)","practiceA","0"
10,"i",805,10000,"p2",14,3,"Revigorado (a)","practiceA","0"
10,"e",724,10000,"p2",14,3,"Revigorado (a)","experimentalA","1"
10,"e",793,10000,"p1",14,3,"Revigorado (a)","experimentalA","1"
10,"i",779,10000,"p2",14,5,"Revigorado (a)","practiceB","1"
10,"i",865,10000,"p1",14,5,"Revigorado (a)","practiceB","1"
10,"i",754,10000,"p1",14,5,"Revigorado (a)","experimentalB","1"
10,"i",886,10000,"p2",14,5,"Revigorado (a)","experimentalB","1"
