"participant","tecla","latency","tempo_pergunta","posicao","tamanho_palavra","bloco","palavra","block","correct"
9,"i",1112,10000,"p2",13,3,"Tranquilo (a)","practiceA","0"
9,"i",705,10000,"p1",13,3,"Tranquilo (a)","practiceA","0"
9,"i",1121,10000,"p2",13,3,"Tranquilo (a)","experimentalA","0"
9,"i",819,10000,"p1",13,3,"Tranquilo (a)","experimentalA","0"
9,"i",1938,10000,"p1",13,5,"Tranquilo (a)","practiceB","1"
9,"e",1025,10000,"p2",13,5,"Tranquilo (a)","practiceB","0"
9,"e",554,10000,"p1",13,5,"Tranquilo (a)","experimentalB","0"
9,"e",720,10000,"p2",13,5,"Tranquilo (a)","experimentalB","0"
6,"i",868,10000,"p1",13,3,"Tranquilo (a)","practiceA","0"
6,"i",680,10000,"p2",13,3,"Tranquilo (a)","practiceA","0"
6,"e",634,10000,"p1",13,3,"Tranquilo (a)","experimentalA","1"
6,"i",617,10000,"p2",13,3,"Tranquilo (a)","experimentalA","0"
6,"i",619,10000,"p1",13,5,"Tranquilo (a)","practiceB","1"
6,"i",295,10000,"p2",13,5,"Tranquilo (a)","practiceB","1"
6,"i",820,10000,"p1",13,5,"Tranquilo (a)","experimentalB","1"
6,"e",1341,10000,"p2",13,5,"Tranquilo (a)","experimentalB","0"
2,"e",717,10000,"p2",13,3,"Tranquilo (a)","practiceA","1"
2,"e",668,10000,"p1",13,3,"Tranquilo (a)","practiceA","1"
2,"e",822,10000,"p1",13,3,"Tranquilo (a)","experimentalA","1"
2,"e",491,10000,"p2",13,3,"Tranquilo (a)","experimentalA","1"
2,"i",834,10000,"p1",13,5,"Tranquilo (a)","practiceB","1"
2,"i",614,10000,"p2",13,5,"Tranquilo (a)","practiceB","1"
2,"e",640,10000,"p1",13,5,"Tranquilo (a)","experimentalB","0"
2,"i",764,10000,"p2",13,5,"Tranquilo (a)","experimentalB","1"
1,"e",1122,10000,"p2",13,3,"Tranquilo (a)","practiceA","1"
1,"e",457,10000,"p1",13,3,"Tranquilo (a)","practiceA","1"
1,"e",560,10000,"p1",13,3,"Tranquilo (a)","experimentalA","1"
1,"e",602,10000,"p2",13,3,"Tranquilo (a)","experimentalA","1"
1,"i",590,10000,"p2",13,5,"Tranquilo (a)","practiceB","1"
1,"e",853,10000,"p1",13,5,"Tranquilo (a)","practiceB","0"
1,"i",588,10000,"p1",13,5,"Tranquilo (a)","experimentalB","1"
1,"i",934,10000,"p2",13,5,"Tranquilo (a)","experimentalB","1"
7,"E",668,10000,"p2",13,3,"Tranquilo (a)","practiceA","1"
7,"I",652,10000,"p1",13,3,"Tranquilo (a)","practiceA","0"
7,"I",1352,10000,"p2",13,3,"Tranquilo (a)","experimentalA","0"
7,"I",608,10000,"p1",13,3,"Tranquilo (a)","experimentalA","0"
7,"I",1380,10000,"p2",13,5,"Tranquilo (a)","practiceB","1"
7,"I",937,10000,"p1",13,5,"Tranquilo (a)","practiceB","1"
7,"E",658,10000,"p2",13,5,"Tranquilo (a)","experimentalB","0"
7,"E",699,10000,"p1",13,5,"Tranquilo (a)","experimentalB","0"
5,"e",813,10000,"p1",13,3,"Tranquilo (a)","practiceA","1"
5,"e",487,10000,"p2",13,3,"Tranquilo (a)","practiceA","1"
5,"e",1589,10000,"p1",13,3,"Tranquilo (a)","experimentalA","1"
5,"e",1857,10000,"p2",13,3,"Tranquilo (a)","experimentalA","1"
5,"i",843,10000,"p2",13,5,"Tranquilo (a)","practiceB","1"
5,"i",1328,10000,"p1",13,5,"Tranquilo (a)","practiceB","1"
5,"i",583,10000,"p2",13,5,"Tranquilo (a)","experimentalB","1"
5,"i",651,10000,"p1",13,5,"Tranquilo (a)","experimentalB","1"
3,"i",521,10000,"p1",13,3,"Tranquilo (a)","practiceA","0"
3,"e",670,10000,"p2",13,3,"Tranquilo (a)","practiceA","1"
3,"i",785,10000,"p2",13,3,"Tranquilo (a)","experimentalA","0"
3,"i",715,10000,"p1",13,3,"Tranquilo (a)","experimentalA","0"
3,"i",1175,10000,"p2",13,5,"Tranquilo (a)","practiceB","1"
3,"e",591,10000,"p1",13,5,"Tranquilo (a)","practiceB","0"
3,"e",623,10000,"p2",13,5,"Tranquilo (a)","experimentalB","0"
3,"e",1000,10000,"p1",13,5,"Tranquilo (a)","experimentalB","0"
8,"i",2473,10000,"p1",13,3,"Tranquilo (a)","practiceA","0"
8,"i",1359,10000,"p2",13,3,"Tranquilo (a)","practiceA","0"
8,"i",761,10000,"p1",13,3,"Tranquilo (a)","experimentalA","0"
8,"i",649,10000,"p2",13,3,"Tranquilo (a)","experimentalA","0"
8,"i",1567,10000,"p2",13,5,"Tranquilo (a)","practiceB","1"
8,"e",1130,10000,"p1",13,5,"Tranquilo (a)","practiceB","0"
8,"e",957,10000,"p1",13,5,"Tranquilo (a)","experimentalB","0"
8,"e",712,10000,"p2",13,5,"Tranquilo (a)","experimentalB","0"
4,"e",1354,10000,"p1",13,3,"Tranquilo (a)","practiceA","1"
4,"e",938,10000,"p2",13,3,"Tranquilo (a)","practiceA","1"
4,"i",649,10000,"p2",13,3,"Tranquilo (a)","experimentalA","0"
4,"e",894,10000,"p1",13,3,"Tranquilo (a)","experimentalA","1"
4,"i",1842,10000,"p1",13,5,"Tranquilo (a)","practiceB","1"
4,"i",1374,10000,"p2",13,5,"Tranquilo (a)","practiceB","1"
4,"i",1251,10000,"p1",13,5,"Tranquilo (a)","experimentalB","1"
4,"e",1519,10000,"p2",13,5,"Tranquilo (a)","experimentalB","0"
10,"i",3065,10000,"p2",13,3,"Tranquilo (a)","practiceA","0"
10,"i",1135,10000,"p1",13,3,"Tranquilo (a)","practiceA","0"
10,"i",1186,10000,"p2",13,3,"Tranquilo (a)","experimentalA","0"
10,"i",1027,10000,"p1",13,3,"Tranquilo (a)","experimentalA","0"
10,"e",1210,10000,"p2",13,5,"Tranquilo (a)","practiceB","0"
10,"i",2644,10000,"p1",13,5,"Tranquilo (a)","practiceB","1"
10,"i",810,10000,"p1",13,5,"Tranquilo (a)","experimentalB","1"
10,"i",1249,10000,"p2",13,5,"Tranquilo (a)","experimentalB","1"
