"participant","tecla","latency","tempo_pergunta","posicao","tamanho_palavra","bloco","palavra","correct","block"
6,"i",680,10000,"p1",13,3,"Romântico (a)","1","practiceB"
6,"i",711,10000,"p2",13,3,"Romântico (a)","1","experimentalB"
6,"e",575,10000,"p2",13,5,"Romântico (a)","1","practiceA"
6,"e",439,10000,"p1",13,5,"Romântico (a)","1","experimentalA"
7,"i",866,10000,"p2",13,3,"Romântico (a)","1","practiceB"
7,"i",946,10000,"p1",13,3,"Romântico (a)","1","experimentalB"
7,"i",2631,10000,"p1",13,5,"Romântico (a)","0","practiceA"
7,"i",711,10000,"p2",13,5,"Romântico (a)","0","experimentalA"
4,"I",1750,10000,"p1",13,3,"Romântico (a)","1","practiceB"
4,"I",1228,10000,"p2",13,3,"Romântico (a)","1","experimentalB"
4,"I",1074,10000,"p2",13,5,"Romântico (a)","0","practiceA"
4,"I",815,10000,"p1",13,5,"Romântico (a)","0","experimentalA"
2,"i",1003,10000,"p2",13,3,"Romântico (a)","1","practiceB"
2,"i",906,10000,"p1",13,3,"Romântico (a)","1","experimentalB"
2,"e",1162,10000,"p1",13,5,"Romântico (a)","1","practiceA"
2,"e",1277,10000,"p2",13,5,"Romântico (a)","1","experimentalA"
6,"i",680,10000,"p1",13,3,"Romântico (a)","1","practiceB"
6,"i",711,10000,"p2",13,3,"Romântico (a)","1","experimentalB"
6,"e",575,10000,"p2",13,5,"Romântico (a)","1","practiceA"
6,"e",439,10000,"p1",13,5,"Romântico (a)","1","experimentalA"
7,"i",866,10000,"p2",13,3,"Romântico (a)","1","practiceB"
7,"i",946,10000,"p1",13,3,"Romântico (a)","1","experimentalB"
7,"i",2631,10000,"p1",13,5,"Romântico (a)","0","practiceA"
7,"i",711,10000,"p2",13,5,"Romântico (a)","0","experimentalA"
4,"I",1750,10000,"p1",13,3,"Romântico (a)","1","practiceB"
4,"I",1228,10000,"p2",13,3,"Romântico (a)","1","experimentalB"
4,"I",1074,10000,"p2",13,5,"Romântico (a)","0","practiceA"
4,"I",815,10000,"p1",13,5,"Romântico (a)","0","experimentalA"
2,"i",1003,10000,"p2",13,3,"Romântico (a)","1","practiceB"
2,"i",906,10000,"p1",13,3,"Romântico (a)","1","experimentalB"
2,"e",1162,10000,"p1",13,5,"Romântico (a)","1","practiceA"
2,"e",1277,10000,"p2",13,5,"Romântico (a)","1","experimentalA"
