"participant","tecla","latency","tempo_pergunta","posicao","tamanho_palavra","bloco","palavra","correct","block"
6,"i",847,10000,"p1",5,3,"Limpa","1","practiceB"
6,"i",629,10000,"p2",5,3,"Limpa","1","experimentalB"
6,"e",1160,10000,"p2",5,5,"Limpa","1","practiceA"
6,"e",866,10000,"p1",5,5,"Limpa","1","experimentalA"
7,"i",7393,10000,"p2",5,3,"Limpa","1","practiceB"
7,"i",724,10000,"p1",5,3,"Limpa","1","experimentalB"
7,"i",5933,10000,"p2",5,5,"Limpa","0","practiceA"
7,"e",1491,10000,"p1",5,5,"Limpa","1","experimentalA"
4,"I",775,10000,"p2",5,3,"Limpa","1","practiceB"
4,"I",888,10000,"p1",5,3,"Limpa","1","experimentalB"
4,"I",995,10000,"p2",5,5,"Limpa","0","practiceA"
4,"I",1393,10000,"p1",5,5,"Limpa","0","experimentalA"
2,"i",1448,10000,"p2",5,3,"Limpa","1","practiceB"
2,"i",1079,10000,"p1",5,3,"Limpa","1","experimentalB"
2,"i",1617,10000,"p1",5,5,"Limpa","0","practiceA"
2,"i",3969,10000,"p2",5,5,"Limpa","0","experimentalA"
6,"i",847,10000,"p1",5,3,"Limpa","1","practiceB"
6,"i",629,10000,"p2",5,3,"Limpa","1","experimentalB"
6,"e",1160,10000,"p2",5,5,"Limpa","1","practiceA"
6,"e",866,10000,"p1",5,5,"Limpa","1","experimentalA"
7,"i",7393,10000,"p2",5,3,"Limpa","1","practiceB"
7,"i",724,10000,"p1",5,3,"Limpa","1","experimentalB"
7,"i",5933,10000,"p2",5,5,"Limpa","0","practiceA"
7,"e",1491,10000,"p1",5,5,"Limpa","1","experimentalA"
4,"I",775,10000,"p2",5,3,"Limpa","1","practiceB"
4,"I",888,10000,"p1",5,3,"Limpa","1","experimentalB"
4,"I",995,10000,"p2",5,5,"Limpa","0","practiceA"
4,"I",1393,10000,"p1",5,5,"Limpa","0","experimentalA"
2,"i",1448,10000,"p2",5,3,"Limpa","1","practiceB"
2,"i",1079,10000,"p1",5,3,"Limpa","1","experimentalB"
2,"i",1617,10000,"p1",5,5,"Limpa","0","practiceA"
2,"i",3969,10000,"p2",5,5,"Limpa","0","experimentalA"
