"participant","tecla","latency","tempo_pergunta","posicao","tamanho_palavra","bloco","palavra","correct","block"
6,"i",884,10000,"p2",5,3,"Ativa","1","practiceB"
6,"i",531,10000,"p1",5,3,"Ativa","1","experimentalB"
6,"e",1874,10000,"p1",5,5,"Ativa","1","practiceA"
6,"e",1556,10000,"p2",5,5,"Ativa","1","experimentalA"
7,"i",1081,10000,"p1",5,3,"Ativa","1","practiceB"
7,"i",1232,10000,"p2",5,3,"Ativa","1","experimentalB"
7,"i",1982,10000,"p1",5,5,"Ativa","0","practiceA"
7,"e",976,10000,"p2",5,5,"Ativa","1","experimentalA"
4,"I",909,10000,"p1",5,3,"Ativa","1","practiceB"
4,"I",1257,10000,"p2",5,3,"Ativa","1","experimentalB"
4,"I",1376,10000,"p1",5,5,"Ativa","0","practiceA"
4,"I",1266,10000,"p2",5,5,"Ativa","0","experimentalA"
2,"i",3751,10000,"p1",5,3,"Ativa","1","practiceB"
2,"i",1161,10000,"p2",5,3,"Ativa","1","experimentalB"
2,"e",1597,10000,"p2",5,5,"Ativa","1","practiceA"
2,"e",4372,10000,"p1",5,5,"Ativa","1","experimentalA"
6,"i",884,10000,"p2",5,3,"Ativa","1","practiceB"
6,"i",531,10000,"p1",5,3,"Ativa","1","experimentalB"
6,"e",1874,10000,"p1",5,5,"Ativa","1","practiceA"
6,"e",1556,10000,"p2",5,5,"Ativa","1","experimentalA"
7,"i",1081,10000,"p1",5,3,"Ativa","1","practiceB"
7,"i",1232,10000,"p2",5,3,"Ativa","1","experimentalB"
7,"i",1982,10000,"p1",5,5,"Ativa","0","practiceA"
7,"e",976,10000,"p2",5,5,"Ativa","1","experimentalA"
4,"I",909,10000,"p1",5,3,"Ativa","1","practiceB"
4,"I",1257,10000,"p2",5,3,"Ativa","1","experimentalB"
4,"I",1376,10000,"p1",5,5,"Ativa","0","practiceA"
4,"I",1266,10000,"p2",5,5,"Ativa","0","experimentalA"
2,"i",3751,10000,"p1",5,3,"Ativa","1","practiceB"
2,"i",1161,10000,"p2",5,3,"Ativa","1","experimentalB"
2,"e",1597,10000,"p2",5,5,"Ativa","1","practiceA"
2,"e",4372,10000,"p1",5,5,"Ativa","1","experimentalA"
