"participant","tecla","latency","tempo_pergunta","posicao","tamanho_palavra","bloco","palavra","correct","block"
6,"e",1765,10000,"p2",11,3,"Enjoado (a)","1","practiceB"
6,"i",2062,10000,"p1",11,3,"Enjoado (a)","0","experimentalB"
6,"i",735,10000,"p1",11,5,"Enjoado (a)","1","practiceA"
6,"i",659,10000,"p2",11,5,"Enjoado (a)","1","experimentalA"
7,"e",1367,10000,"p2",11,3,"Enjoado (a)","1","practiceB"
7,"e",967,10000,"p1",11,3,"Enjoado (a)","1","experimentalB"
7,"i",1452,10000,"p1",11,5,"Enjoado (a)","1","practiceA"
7,"i",623,10000,"p2",11,5,"Enjoado (a)","1","experimentalA"
4,"I",1036,10000,"p1",11,3,"Enjoado (a)","0","practiceB"
4,"I",816,10000,"p2",11,3,"Enjoado (a)","0","experimentalB"
4,"I",2374,10000,"p1",11,5,"Enjoado (a)","1","practiceA"
4,"I",681,10000,"p2",11,5,"Enjoado (a)","1","experimentalA"
2,"e",1071,10000,"p2",11,3,"Enjoado (a)","1","practiceB"
2,"e",989,10000,"p1",11,3,"Enjoado (a)","1","experimentalB"
2,"i",1239,10000,"p2",11,5,"Enjoado (a)","1","practiceA"
2,"i",1060,10000,"p1",11,5,"Enjoado (a)","1","experimentalA"
6,"e",1765,10000,"p2",11,3,"Enjoado (a)","1","practiceB"
6,"i",2062,10000,"p1",11,3,"Enjoado (a)","0","experimentalB"
6,"i",735,10000,"p1",11,5,"Enjoado (a)","1","practiceA"
6,"i",659,10000,"p2",11,5,"Enjoado (a)","1","experimentalA"
7,"e",1367,10000,"p2",11,3,"Enjoado (a)","1","practiceB"
7,"e",967,10000,"p1",11,3,"Enjoado (a)","1","experimentalB"
7,"i",1452,10000,"p1",11,5,"Enjoado (a)","1","practiceA"
7,"i",623,10000,"p2",11,5,"Enjoado (a)","1","experimentalA"
4,"I",1036,10000,"p1",11,3,"Enjoado (a)","0","practiceB"
4,"I",816,10000,"p2",11,3,"Enjoado (a)","0","experimentalB"
4,"I",2374,10000,"p1",11,5,"Enjoado (a)","1","practiceA"
4,"I",681,10000,"p2",11,5,"Enjoado (a)","1","experimentalA"
2,"e",1071,10000,"p2",11,3,"Enjoado (a)","1","practiceB"
2,"e",989,10000,"p1",11,3,"Enjoado (a)","1","experimentalB"
2,"i",1239,10000,"p2",11,5,"Enjoado (a)","1","practiceA"
2,"i",1060,10000,"p1",11,5,"Enjoado (a)","1","experimentalA"
