"participant","tecla","latency","tempo_pergunta","posicao","tamanho_palavra","bloco","palavra","correct","block"
6,"i",1098,10000,"p2",13,3,"Com bem-estar","1","practiceB"
6,"i",612,10000,"p1",13,3,"Com bem-estar","1","experimentalB"
6,"e",1617,10000,"p1",13,5,"Com bem-estar","1","practiceA"
6,"e",832,10000,"p2",13,5,"Com bem-estar","1","experimentalA"
7,"i",1238,10000,"p1",13,3,"Com bem-estar","1","practiceB"
7,"i",1099,10000,"p2",13,3,"Com bem-estar","1","experimentalB"
7,"i",2678,10000,"p1",13,5,"Com bem-estar","0","practiceA"
7,"i",743,10000,"p2",13,5,"Com bem-estar","0","experimentalA"
4,"I",2040,10000,"p2",13,3,"Com bem-estar","1","practiceB"
4,"I",751,10000,"p1",13,3,"Com bem-estar","1","experimentalB"
4,"I",1395,10000,"p2",13,5,"Com bem-estar","0","practiceA"
4,"I",942,10000,"p1",13,5,"Com bem-estar","0","experimentalA"
2,"i",1910,10000,"p1",13,3,"Com bem-estar","1","practiceB"
2,"i",1375,10000,"p2",13,3,"Com bem-estar","1","experimentalB"
2,"e",2991,10000,"p2",13,5,"Com bem-estar","1","practiceA"
2,"e",1082,10000,"p1",13,5,"Com bem-estar","1","experimentalA"
6,"i",1098,10000,"p2",13,3,"Com bem-estar","1","practiceB"
6,"i",612,10000,"p1",13,3,"Com bem-estar","1","experimentalB"
6,"e",1617,10000,"p1",13,5,"Com bem-estar","1","practiceA"
6,"e",832,10000,"p2",13,5,"Com bem-estar","1","experimentalA"
7,"i",1238,10000,"p1",13,3,"Com bem-estar","1","practiceB"
7,"i",1099,10000,"p2",13,3,"Com bem-estar","1","experimentalB"
7,"i",2678,10000,"p1",13,5,"Com bem-estar","0","practiceA"
7,"i",743,10000,"p2",13,5,"Com bem-estar","0","experimentalA"
4,"I",2040,10000,"p2",13,3,"Com bem-estar","1","practiceB"
4,"I",751,10000,"p1",13,3,"Com bem-estar","1","experimentalB"
4,"I",1395,10000,"p2",13,5,"Com bem-estar","0","practiceA"
4,"I",942,10000,"p1",13,5,"Com bem-estar","0","experimentalA"
2,"i",1910,10000,"p1",13,3,"Com bem-estar","1","practiceB"
2,"i",1375,10000,"p2",13,3,"Com bem-estar","1","experimentalB"
2,"e",2991,10000,"p2",13,5,"Com bem-estar","1","practiceA"
2,"e",1082,10000,"p1",13,5,"Com bem-estar","1","experimentalA"
