"participant","n_trial","slow10000","num.300","num.400","mean.tot","p_correct_block.practice_MappingA","p_correct_block.practice_MappingB","p_correct_block.test_MappingA","p_correct_block.test_MappingB","p_correct_bpool.practice","p_correct_bpool.test","prop_correct_cond.MappingA","prop_correct_cond.MappingB","p_correct_tot","d_practice_1","d_test_1","dscore_1","cond_ord","legendMappingA","legendMappingB"
"19",116,0,0,0,1274.81034482759,0.793103448275862,0.793103448275862,0.862068965517241,0.862068965517241,0.793103448275862,0.862068965517241,0.827586206896552,0.827586206896552,0.827586206896552,0.385527727223746,-0.464108879917559,-0.0392905763469062,"MappingA_First","practiceA_and_experimentalA","practiceB_and_experimentalB"
"22",116,0,0,1,765.086206896552,0.793103448275862,0.793103448275862,0.862068965517241,0.862068965517241,0.793103448275862,0.862068965517241,0.827586206896552,0.827586206896552,0.827586206896552,0.238324101290369,-0.589789261687702,-0.175732580198666,"MappingA_First","practiceA_and_experimentalA","practiceB_and_experimentalB"
"23",116,0,0,0,992.663793103448,0.793103448275862,0.793103448275862,0.862068965517241,0.862068965517241,0.793103448275862,0.862068965517241,0.827586206896552,0.827586206896552,0.827586206896552,-0.447154909349422,-0.438707807425529,-0.442931358387475,"MappingA_First","practiceA_and_experimentalA","practiceB_and_experimentalB"
