"participant","n_trial","slow10000","num.300","num.400","mean.tot","p_correct_block.practice_MappingA","p_correct_block.practice_MappingB","p_correct_block.test_MappingA","p_correct_block.test_MappingB","p_correct_bpool.practice","p_correct_bpool.test","prop_correct_cond.MappingA","prop_correct_cond.MappingB","p_correct_tot","d_practice_4","d_test_4","dscore_4","cond_ord","legendMappingA","legendMappingB"
"1",120,0,4,21,817.308333333333,0.666666666666667,0.766666666666667,0.633333333333333,0.533333333333333,0.716666666666667,0.583333333333333,0.65,0.65,0.65,-0.545338205320441,-0.360263345628467,-0.452800775474454,"MappingA_First","practiceA_and_experimentalA","practiceB_and_experimentalB"
"10",120,0,7,10,900.741666666667,0.6,0.566666666666667,0.6,0.666666666666667,0.583333333333333,0.633333333333333,0.6,0.616666666666667,0.608333333333333,-0.242548194113421,-0.255513570049285,-0.249030882081353,"MappingA_First","practiceA_and_experimentalA","practiceB_and_experimentalB"
"100",120,0,7,19,866.758333333333,0.633333333333333,0.6,0.6,0.6,0.616666666666667,0.6,0.616666666666667,0.6,0.608333333333333,-0.754153109287926,-0.579609033804182,-0.666881071546054,"MappingA_First","practiceA_and_experimentalA","practiceB_and_experimentalB"
"11",120,0,4,16,856.008333333333,0.5,0.566666666666667,0.566666666666667,0.666666666666667,0.533333333333333,0.616666666666667,0.533333333333333,0.616666666666667,0.575,0.14769995373566,0.0890468209024324,0.118373387319046,"MappingA_First","practiceA_and_experimentalA","practiceB_and_experimentalB"
"12",120,0,4,15,783.641666666667,0.466666666666667,0.733333333333333,0.533333333333333,0.566666666666667,0.6,0.55,0.5,0.65,0.575,-0.112290165488944,-0.138615091041445,-0.125452628265194,"MappingA_First","practiceA_and_experimentalA","practiceB_and_experimentalB"
"13",120,0,2,12,838.408333333333,0.566666666666667,0.6,0.633333333333333,0.5,0.583333333333333,0.566666666666667,0.6,0.55,0.575,0.271868143311761,0.0590467967784804,0.165457470045121,"MappingA_First","practiceA_and_experimentalA","practiceB_and_experimentalB"
"14",120,0,3,11,879.766666666667,0.733333333333333,0.7,0.633333333333333,0.4,0.716666666666667,0.516666666666667,0.683333333333333,0.55,0.616666666666667,-0.261789785256594,0.335676762587031,0.0369434886652189,"MappingA_First","practiceA_and_experimentalA","practiceB_and_experimentalB"
"15",120,0,3,13,876.291666666667,0.6,0.7,0.6,0.533333333333333,0.65,0.566666666666667,0.6,0.616666666666667,0.608333333333333,-0.321471513270435,-0.243694669117262,-0.282583091193848,"MappingA_First","practiceA_and_experimentalA","practiceB_and_experimentalB"
"16",120,0,9,23,927.65,0.766666666666667,0.666666666666667,0.633333333333333,0.466666666666667,0.716666666666667,0.55,0.7,0.566666666666667,0.633333333333333,0.311866635838417,-0.269317300629927,0.0212746676042449,"MappingA_First","practiceA_and_experimentalA","practiceB_and_experimentalB"
"17",120,0,4,16,855.4,0.566666666666667,0.533333333333333,0.7,0.5,0.55,0.6,0.633333333333333,0.516666666666667,0.575,0.219999072104508,0.201241347203482,0.210620209653995,"MappingA_First","practiceA_and_experimentalA","practiceB_and_experimentalB"
"18",120,0,7,17,828.458333333333,0.566666666666667,0.566666666666667,0.766666666666667,0.566666666666667,0.566666666666667,0.666666666666667,0.666666666666667,0.566666666666667,0.616666666666667,0.0179176935635272,0.752231231477757,0.385074462520642,"MappingA_First","practiceA_and_experimentalA","practiceB_and_experimentalB"
"19",120,0,2,13,851.916666666667,0.633333333333333,0.566666666666667,0.5,0.633333333333333,0.6,0.566666666666667,0.566666666666667,0.6,0.583333333333333,0.51592401943401,0.508945277894072,0.512434648664041,"MappingA_First","practiceA_and_experimentalA","practiceB_and_experimentalB"
"2",120,0,2,19,857.4,0.533333333333333,0.5,0.633333333333333,0.633333333333333,0.516666666666667,0.633333333333333,0.583333333333333,0.566666666666667,0.575,0.0357145106420149,0.0373987096758652,0.03655661015894,"MappingA_First","practiceA_and_experimentalA","practiceB_and_experimentalB"
"20",120,0,4,15,891.075,0.533333333333333,0.433333333333333,0.566666666666667,0.633333333333333,0.483333333333333,0.6,0.55,0.533333333333333,0.541666666666667,0.812473598653555,-0.271015126737568,0.270729235957994,"MappingA_First","practiceA_and_experimentalA","practiceB_and_experimentalB"
"21",120,0,3,9,824.45,0.666666666666667,0.533333333333333,0.566666666666667,0.7,0.6,0.633333333333333,0.616666666666667,0.616666666666667,0.616666666666667,0.0723425448632724,0.222225618374496,0.147284081618884,"MappingA_First","practiceA_and_experimentalA","practiceB_and_experimentalB"
"22",120,0,7,15,810.758333333333,0.5,0.533333333333333,0.6,0.766666666666667,0.516666666666667,0.683333333333333,0.55,0.65,0.6,0.133761196448475,-0.715443214505549,-0.290841009028537,"MappingA_First","practiceA_and_experimentalA","practiceB_and_experimentalB"
"23",120,0,7,16,911.241666666667,0.533333333333333,0.566666666666667,0.633333333333333,0.666666666666667,0.55,0.65,0.583333333333333,0.616666666666667,0.6,-0.058799328951458,-0.873764809502159,-0.466282069226808,"MappingA_First","practiceA_and_experimentalA","practiceB_and_experimentalB"
"24",120,0,5,11,875.858333333333,0.7,0.533333333333333,0.7,0.6,0.616666666666667,0.65,0.7,0.566666666666667,0.633333333333333,0.989551739815904,0.242304206283217,0.61592797304956,"MappingA_First","practiceA_and_experimentalA","practiceB_and_experimentalB"
"25",120,0,4,17,897.941666666667,0.666666666666667,0.666666666666667,0.633333333333333,0.433333333333333,0.666666666666667,0.533333333333333,0.65,0.55,0.6,0.73826999725231,0.526005150522065,0.632137573887188,"MappingA_First","practiceA_and_experimentalA","practiceB_and_experimentalB"
"26",120,0,4,15,855.241666666667,0.566666666666667,0.633333333333333,0.7,0.433333333333333,0.6,0.566666666666667,0.633333333333333,0.533333333333333,0.583333333333333,0.0488309424255472,-0.141722683209285,-0.0464458703918691,"MappingA_First","practiceA_and_experimentalA","practiceB_and_experimentalB"
"27",120,0,11,17,922.691666666667,0.633333333333333,0.533333333333333,0.633333333333333,0.633333333333333,0.583333333333333,0.633333333333333,0.633333333333333,0.583333333333333,0.608333333333333,0.0782147192645203,0.830513449784423,0.454364084524471,"MappingA_First","practiceA_and_experimentalA","practiceB_and_experimentalB"
"28",120,0,5,12,857.216666666667,0.633333333333333,0.666666666666667,0.633333333333333,0.5,0.65,0.566666666666667,0.633333333333333,0.583333333333333,0.608333333333333,-0.440643839882288,-0.255498777590612,-0.34807130873645,"MappingA_First","practiceA_and_experimentalA","practiceB_and_experimentalB"
"29",120,0,5,17,867.3,0.533333333333333,0.6,0.633333333333333,0.633333333333333,0.566666666666667,0.633333333333333,0.583333333333333,0.616666666666667,0.6,-0.320942075261046,0.226972340510468,-0.0469848673752891,"MappingA_First","practiceA_and_experimentalA","practiceB_and_experimentalB"
"3",120,0,4,15,854.816666666667,0.433333333333333,0.6,0.533333333333333,0.566666666666667,0.516666666666667,0.55,0.483333333333333,0.583333333333333,0.533333333333333,0.142605143242901,0.131285886026,0.136945514634451,"MappingA_First","practiceA_and_experimentalA","practiceB_and_experimentalB"
"30",120,0,6,14,930.125,0.5,0.566666666666667,0.566666666666667,0.733333333333333,0.533333333333333,0.65,0.533333333333333,0.65,0.591666666666667,0.530517647508883,-0.219093187188899,0.155712230159992,"MappingA_First","practiceA_and_experimentalA","practiceB_and_experimentalB"
"31",120,0,7,20,855.733333333333,0.633333333333333,0.533333333333333,0.666666666666667,0.533333333333333,0.583333333333333,0.6,0.65,0.533333333333333,0.591666666666667,0.0819064824980223,-0.590568984972997,-0.254331251237487,"MappingA_First","practiceA_and_experimentalA","practiceB_and_experimentalB"
"32",120,0,3,12,938.041666666667,0.533333333333333,0.433333333333333,0.466666666666667,0.633333333333333,0.483333333333333,0.55,0.5,0.533333333333333,0.516666666666667,-0.0841553937356813,-0.299511336899872,-0.191833365317777,"MappingA_First","practiceA_and_experimentalA","practiceB_and_experimentalB"
"33",120,0,7,16,793.716666666667,0.7,0.566666666666667,0.666666666666667,0.6,0.633333333333333,0.633333333333333,0.683333333333333,0.583333333333333,0.633333333333333,-0.300051253294384,0.358790224521616,0.029369485613616,"MappingA_First","practiceA_and_experimentalA","practiceB_and_experimentalB"
"34",120,0,5,18,827.733333333333,0.733333333333333,0.666666666666667,0.533333333333333,0.533333333333333,0.7,0.533333333333333,0.633333333333333,0.6,0.616666666666667,0.0630935414530055,0.45183299440914,0.257463267931073,"MappingA_First","practiceA_and_experimentalA","practiceB_and_experimentalB"
"35",120,0,3,17,829.625,0.7,0.566666666666667,0.666666666666667,0.633333333333333,0.633333333333333,0.65,0.683333333333333,0.6,0.641666666666667,0.277371249645955,-0.458139936416853,-0.0903843433854485,"MappingA_First","practiceA_and_experimentalA","practiceB_and_experimentalB"
"36",120,0,4,16,845.791666666667,0.7,0.466666666666667,0.566666666666667,0.566666666666667,0.583333333333333,0.566666666666667,0.633333333333333,0.516666666666667,0.575,0.285102166637881,0.230032994255605,0.257567580446743,"MappingA_First","practiceA_and_experimentalA","practiceB_and_experimentalB"
"37",120,0,4,19,814.158333333333,0.733333333333333,0.466666666666667,0.666666666666667,0.466666666666667,0.6,0.566666666666667,0.7,0.466666666666667,0.583333333333333,0.464769922356228,0.399972044460493,0.43237098340836,"MappingA_First","practiceA_and_experimentalA","practiceB_and_experimentalB"
"38",120,0,7,16,816.891666666667,0.6,0.566666666666667,0.5,0.466666666666667,0.583333333333333,0.483333333333333,0.55,0.516666666666667,0.533333333333333,-0.253233548504204,-0.424572175216667,-0.338902861860436,"MappingA_First","practiceA_and_experimentalA","practiceB_and_experimentalB"
"39",120,0,4,20,783.283333333333,0.533333333333333,0.6,0.733333333333333,0.566666666666667,0.566666666666667,0.65,0.633333333333333,0.583333333333333,0.608333333333333,0.205517358681168,0.301773799443301,0.253645579062235,"MappingA_First","practiceA_and_experimentalA","practiceB_and_experimentalB"
"4",120,0,5,16,927.425,0.5,0.833333333333333,0.566666666666667,0.733333333333333,0.666666666666667,0.65,0.533333333333333,0.783333333333333,0.658333333333333,-0.417270596300731,-0.20624547475885,-0.31175803552979,"MappingA_First","practiceA_and_experimentalA","practiceB_and_experimentalB"
"40",120,0,3,17,877.291666666667,0.566666666666667,0.666666666666667,0.633333333333333,0.6,0.616666666666667,0.616666666666667,0.6,0.633333333333333,0.616666666666667,-1.09692110570587,-0.0307730409169405,-0.563847073311406,"MappingA_First","practiceA_and_experimentalA","practiceB_and_experimentalB"
"41",120,0,5,15,883.883333333333,0.566666666666667,0.666666666666667,0.666666666666667,0.666666666666667,0.616666666666667,0.666666666666667,0.616666666666667,0.666666666666667,0.641666666666667,-0.40695785288516,0.285539124515779,-0.0607093641846906,"MappingA_First","practiceA_and_experimentalA","practiceB_and_experimentalB"
"42",120,0,1,11,977.558333333333,0.566666666666667,0.6,0.6,0.6,0.583333333333333,0.6,0.583333333333333,0.6,0.591666666666667,0.689489031713824,0.0596649492997385,0.374576990506781,"MappingA_First","practiceA_and_experimentalA","practiceB_and_experimentalB"
"43",120,0,2,15,933.341666666667,0.7,0.533333333333333,0.533333333333333,0.5,0.616666666666667,0.516666666666667,0.616666666666667,0.516666666666667,0.566666666666667,0.574916434054492,0.697289534203574,0.636102984129033,"MappingA_First","practiceA_and_experimentalA","practiceB_and_experimentalB"
"44",120,0,2,11,910.475,0.566666666666667,0.5,0.5,0.533333333333333,0.533333333333333,0.516666666666667,0.533333333333333,0.516666666666667,0.525,0.228258835223762,0.455811913152305,0.342035374188033,"MappingA_First","practiceA_and_experimentalA","practiceB_and_experimentalB"
"45",120,0,5,13,961.641666666667,0.6,0.5,0.533333333333333,0.666666666666667,0.55,0.6,0.566666666666667,0.583333333333333,0.575,-0.600945873598598,-0.675447918446483,-0.63819689602254,"MappingA_First","practiceA_and_experimentalA","practiceB_and_experimentalB"
"46",120,0,4,15,914.225,0.466666666666667,0.633333333333333,0.466666666666667,0.5,0.55,0.483333333333333,0.466666666666667,0.566666666666667,0.516666666666667,-0.47366167891379,-0.0289175972054162,-0.251289638059603,"MappingA_First","practiceA_and_experimentalA","practiceB_and_experimentalB"
"47",120,0,9,21,798.108333333333,0.633333333333333,0.666666666666667,0.633333333333333,0.633333333333333,0.65,0.633333333333333,0.633333333333333,0.65,0.641666666666667,0.207075372461359,0.288109152646544,0.247592262553952,"MappingA_First","practiceA_and_experimentalA","practiceB_and_experimentalB"
"48",120,0,4,12,907.491666666667,0.633333333333333,0.6,0.633333333333333,0.566666666666667,0.616666666666667,0.6,0.633333333333333,0.583333333333333,0.608333333333333,-0.253675824008341,0.0113890841945463,-0.121143369906898,"MappingA_First","practiceA_and_experimentalA","practiceB_and_experimentalB"
"49",120,0,3,12,912.008333333333,0.566666666666667,0.466666666666667,0.6,0.5,0.516666666666667,0.55,0.583333333333333,0.483333333333333,0.533333333333333,0.310527174898804,0.0155708524959071,0.163049013697356,"MappingA_First","practiceA_and_experimentalA","practiceB_and_experimentalB"
"5",120,0,6,17,874.841666666667,0.6,0.5,0.666666666666667,0.666666666666667,0.55,0.666666666666667,0.633333333333333,0.583333333333333,0.608333333333333,0.198431976165525,-0.261321880908496,-0.0314449523714855,"MappingA_First","practiceA_and_experimentalA","practiceB_and_experimentalB"
"50",120,0,5,21,842.633333333333,0.666666666666667,0.666666666666667,0.566666666666667,0.566666666666667,0.666666666666667,0.566666666666667,0.616666666666667,0.616666666666667,0.616666666666667,0.198091888378331,-0.241360569837011,-0.0216343407293397,"MappingA_First","practiceA_and_experimentalA","practiceB_and_experimentalB"
"51",120,0,11,21,807.666666666667,0.533333333333333,0.566666666666667,0.5,0.533333333333333,0.55,0.516666666666667,0.516666666666667,0.55,0.533333333333333,-0.608203913778285,0.124250214161659,-0.241976849808313,"MappingA_First","practiceA_and_experimentalA","practiceB_and_experimentalB"
"52",120,0,6,13,910.808333333333,0.633333333333333,0.5,0.533333333333333,0.5,0.566666666666667,0.516666666666667,0.583333333333333,0.5,0.541666666666667,-0.13127012740118,-0.227861578457722,-0.179565852929451,"MappingA_First","practiceA_and_experimentalA","practiceB_and_experimentalB"
"53",120,0,4,16,871.008333333333,0.466666666666667,0.5,0.566666666666667,0.533333333333333,0.483333333333333,0.55,0.516666666666667,0.516666666666667,0.516666666666667,0.116761805063376,-0.296334779647867,-0.0897864872922455,"MappingA_First","practiceA_and_experimentalA","practiceB_and_experimentalB"
"54",120,0,4,23,913.008333333333,0.566666666666667,0.6,0.666666666666667,0.566666666666667,0.583333333333333,0.616666666666667,0.616666666666667,0.583333333333333,0.6,0.290704384668033,0.017263224490382,0.153983804579207,"MappingA_First","practiceA_and_experimentalA","practiceB_and_experimentalB"
"55",120,0,10,21,823.133333333333,0.6,0.7,0.533333333333333,0.766666666666667,0.65,0.65,0.566666666666667,0.733333333333333,0.65,-0.218754942569405,0.204775136048361,-0.00698990326052226,"MappingA_First","practiceA_and_experimentalA","practiceB_and_experimentalB"
"56",120,0,4,17,875.075,0.566666666666667,0.5,0.5,0.633333333333333,0.533333333333333,0.566666666666667,0.533333333333333,0.566666666666667,0.55,0.902557462270385,-0.704839357026492,0.0988590526219462,"MappingA_First","practiceA_and_experimentalA","practiceB_and_experimentalB"
"57",120,0,4,23,845.633333333333,0.666666666666667,0.7,0.666666666666667,0.633333333333333,0.683333333333333,0.65,0.666666666666667,0.666666666666667,0.666666666666667,0.261567509011987,0.124811977839489,0.193189743425738,"MappingA_First","practiceA_and_experimentalA","practiceB_and_experimentalB"
"58",120,0,4,16,876.541666666667,0.633333333333333,0.566666666666667,0.7,0.7,0.6,0.7,0.666666666666667,0.633333333333333,0.65,0.21059700613493,0.0349280952439647,0.122762550689447,"MappingA_First","practiceA_and_experimentalA","practiceB_and_experimentalB"
"59",120,0,7,18,837.7,0.6,0.566666666666667,0.566666666666667,0.7,0.583333333333333,0.633333333333333,0.583333333333333,0.633333333333333,0.608333333333333,-0.229899411842228,-0.31714692814473,-0.273523169993479,"MappingA_First","practiceA_and_experimentalA","practiceB_and_experimentalB"
"6",120,0,4,23,739.041666666667,0.6,0.566666666666667,0.566666666666667,0.633333333333333,0.583333333333333,0.6,0.583333333333333,0.6,0.591666666666667,0.0224762033108961,-0.236106293134048,-0.106815044911576,"MappingA_First","practiceA_and_experimentalA","practiceB_and_experimentalB"
"60",120,0,2,12,914.95,0.733333333333333,0.5,0.466666666666667,0.633333333333333,0.616666666666667,0.55,0.6,0.566666666666667,0.583333333333333,0.852710399147237,-0.552928551861135,0.149890923643051,"MappingA_First","practiceA_and_experimentalA","practiceB_and_experimentalB"
"61",120,0,3,17,852.408333333333,0.633333333333333,0.6,0.633333333333333,0.7,0.616666666666667,0.666666666666667,0.633333333333333,0.65,0.641666666666667,0.0598303617887679,0.130604746832828,0.095217554310798,"MappingA_First","practiceA_and_experimentalA","practiceB_and_experimentalB"
"62",120,0,7,12,824.008333333333,0.766666666666667,0.8,0.6,0.566666666666667,0.783333333333333,0.583333333333333,0.683333333333333,0.683333333333333,0.683333333333333,-0.120904198580405,0.12809930255153,0.00359755198556253,"MappingA_First","practiceA_and_experimentalA","practiceB_and_experimentalB"
"63",120,0,5,11,903.266666666667,0.633333333333333,0.7,0.6,0.6,0.666666666666667,0.6,0.616666666666667,0.65,0.633333333333333,0.331667366907787,-0.767700451244204,-0.218016542168209,"MappingA_First","practiceA_and_experimentalA","practiceB_and_experimentalB"
"64",120,0,2,15,900.683333333333,0.8,0.533333333333333,0.633333333333333,0.733333333333333,0.666666666666667,0.683333333333333,0.716666666666667,0.633333333333333,0.675,0.375649049146606,0.184059606040711,0.279854327593659,"MappingA_First","practiceA_and_experimentalA","practiceB_and_experimentalB"
"65",120,0,6,13,949.9,0.666666666666667,0.466666666666667,0.6,0.5,0.566666666666667,0.55,0.633333333333333,0.483333333333333,0.558333333333333,0.223397628013952,0.269978242784022,0.246687935398987,"MappingA_First","practiceA_and_experimentalA","practiceB_and_experimentalB"
"66",120,0,6,15,884.183333333333,0.5,0.566666666666667,0.5,0.433333333333333,0.533333333333333,0.466666666666667,0.5,0.5,0.5,-0.151395579661032,0.276596729187755,0.0626005747633619,"MappingA_First","practiceA_and_experimentalA","practiceB_and_experimentalB"
"67",120,0,6,19,833.85,0.666666666666667,0.6,0.566666666666667,0.7,0.633333333333333,0.633333333333333,0.616666666666667,0.65,0.633333333333333,-0.0950162949133552,0.154286704433548,0.0296352047600962,"MappingA_First","practiceA_and_experimentalA","practiceB_and_experimentalB"
"68",120,0,8,18,834.583333333333,0.566666666666667,0.666666666666667,0.566666666666667,0.5,0.616666666666667,0.533333333333333,0.566666666666667,0.583333333333333,0.575,-0.575650415233184,0.686309436433886,0.055329510600351,"MappingA_First","practiceA_and_experimentalA","practiceB_and_experimentalB"
"69",120,0,4,21,844.316666666667,0.5,0.6,0.666666666666667,0.533333333333333,0.55,0.6,0.583333333333333,0.566666666666667,0.575,-0.542726464947728,0.253556999012203,-0.144584732967762,"MappingA_First","practiceA_and_experimentalA","practiceB_and_experimentalB"
"7",120,0,6,15,840.358333333333,0.7,0.7,0.5,0.533333333333333,0.7,0.516666666666667,0.6,0.616666666666667,0.608333333333333,-0.106526222717658,-0.860808604623474,-0.483667413670566,"MappingA_First","practiceA_and_experimentalA","practiceB_and_experimentalB"
"70",120,0,5,14,906.883333333333,0.733333333333333,0.466666666666667,0.6,0.6,0.6,0.6,0.666666666666667,0.533333333333333,0.6,0.201205361365336,0.17916290834995,0.190184134857643,"MappingA_First","practiceA_and_experimentalA","practiceB_and_experimentalB"
"71",120,0,6,17,890.65,0.433333333333333,0.6,0.533333333333333,0.6,0.516666666666667,0.566666666666667,0.483333333333333,0.6,0.541666666666667,-0.0529093983795161,-0.149898887936972,-0.101404143158244,"MappingA_First","practiceA_and_experimentalA","practiceB_and_experimentalB"
"72",120,0,3,15,881.083333333333,0.533333333333333,0.733333333333333,0.666666666666667,0.766666666666667,0.633333333333333,0.716666666666667,0.6,0.75,0.675,-0.153955699426963,-0.398322428225108,-0.276139063826035,"MappingA_First","practiceA_and_experimentalA","practiceB_and_experimentalB"
"73",120,0,6,10,851.633333333333,0.6,0.666666666666667,0.533333333333333,0.533333333333333,0.633333333333333,0.533333333333333,0.566666666666667,0.6,0.583333333333333,-0.00362007957602635,0.250383784889665,0.123381852656819,"MappingA_First","practiceA_and_experimentalA","practiceB_and_experimentalB"
"74",120,0,6,14,900.416666666667,0.6,0.7,0.666666666666667,0.766666666666667,0.65,0.716666666666667,0.633333333333333,0.733333333333333,0.683333333333333,-0.170668903124351,0.0388047717055649,-0.0659320657093931,"MappingA_First","practiceA_and_experimentalA","practiceB_and_experimentalB"
"75",120,0,10,20,781.116666666667,0.7,0.466666666666667,0.666666666666667,0.6,0.583333333333333,0.633333333333333,0.683333333333333,0.533333333333333,0.608333333333333,0.706339681898432,-0.271844607227539,0.217247537335447,"MappingA_First","practiceA_and_experimentalA","practiceB_and_experimentalB"
"76",120,0,4,15,851.383333333333,0.6,0.6,0.733333333333333,0.6,0.6,0.666666666666667,0.666666666666667,0.6,0.633333333333333,-0.297190780150325,0.470648720013953,0.0867289699318142,"MappingA_First","practiceA_and_experimentalA","practiceB_and_experimentalB"
"77",120,0,6,18,871.95,0.466666666666667,0.533333333333333,0.666666666666667,0.666666666666667,0.5,0.666666666666667,0.566666666666667,0.6,0.583333333333333,0.1036890996957,0.173851438330997,0.138770269013348,"MappingA_First","practiceA_and_experimentalA","practiceB_and_experimentalB"
"78",120,0,6,14,797.591666666667,0.566666666666667,0.633333333333333,0.5,0.6,0.6,0.55,0.533333333333333,0.616666666666667,0.575,-0.308771800285959,-0.283542007270123,-0.296156903778041,"MappingA_First","practiceA_and_experimentalA","practiceB_and_experimentalB"
"79",120,0,7,20,824.766666666667,0.5,0.7,0.533333333333333,0.6,0.6,0.566666666666667,0.516666666666667,0.65,0.583333333333333,-1.09766372281896,-0.177325963978404,-0.637494843398683,"MappingA_First","practiceA_and_experimentalA","practiceB_and_experimentalB"
"8",120,0,3,8,886.008333333333,0.666666666666667,0.6,0.8,0.633333333333333,0.633333333333333,0.716666666666667,0.733333333333333,0.616666666666667,0.675,-0.00870406890241162,0.783000672293218,0.387148301695403,"MappingA_First","practiceA_and_experimentalA","practiceB_and_experimentalB"
"80",120,0,3,11,849.6,0.7,0.6,0.533333333333333,0.433333333333333,0.65,0.483333333333333,0.616666666666667,0.516666666666667,0.566666666666667,0.125542834800321,-0.17083175203597,-0.0226444586178243,"MappingA_First","practiceA_and_experimentalA","practiceB_and_experimentalB"
"81",120,0,8,19,881.35,0.466666666666667,0.566666666666667,0.633333333333333,0.566666666666667,0.516666666666667,0.6,0.55,0.566666666666667,0.558333333333333,-0.402315696749513,-0.205869865571163,-0.304092781160338,"MappingA_First","practiceA_and_experimentalA","practiceB_and_experimentalB"
"82",120,0,9,16,864.991666666667,0.566666666666667,0.5,0.533333333333333,0.566666666666667,0.533333333333333,0.55,0.55,0.533333333333333,0.541666666666667,0.302370105888385,-0.588196459853294,-0.142913176982455,"MappingA_First","practiceA_and_experimentalA","practiceB_and_experimentalB"
"83",120,0,9,19,884.5,0.7,0.566666666666667,0.6,0.5,0.633333333333333,0.55,0.65,0.533333333333333,0.591666666666667,0.0914917217354323,0.395098564931075,0.243295143333253,"MappingA_First","practiceA_and_experimentalA","practiceB_and_experimentalB"
"84",120,0,8,16,807.2,0.7,0.466666666666667,0.533333333333333,0.666666666666667,0.583333333333333,0.6,0.616666666666667,0.566666666666667,0.591666666666667,0.0270653289789884,-0.102310100941341,-0.0376223859811762,"MappingA_First","practiceA_and_experimentalA","practiceB_and_experimentalB"
"85",120,0,5,15,883.683333333333,0.633333333333333,0.666666666666667,0.5,0.533333333333333,0.65,0.516666666666667,0.566666666666667,0.6,0.583333333333333,0.104712870007555,0.82813244906101,0.466422659534283,"MappingA_First","practiceA_and_experimentalA","practiceB_and_experimentalB"
"86",120,0,6,15,820.391666666667,0.6,0.566666666666667,0.666666666666667,0.466666666666667,0.583333333333333,0.566666666666667,0.633333333333333,0.516666666666667,0.575,-0.280057946690787,0.789404030394248,0.254673041851731,"MappingA_First","practiceA_and_experimentalA","practiceB_and_experimentalB"
"87",120,0,6,15,873.375,0.6,0.633333333333333,0.566666666666667,0.5,0.616666666666667,0.533333333333333,0.583333333333333,0.566666666666667,0.575,-0.177815965332526,0.156871676824371,-0.0104721442540775,"MappingA_First","practiceA_and_experimentalA","practiceB_and_experimentalB"
"88",120,0,6,17,787.341666666667,0.533333333333333,0.533333333333333,0.866666666666667,0.666666666666667,0.533333333333333,0.766666666666667,0.7,0.6,0.65,-0.188154285834026,0.162994407424352,-0.0125799392048372,"MappingA_First","practiceA_and_experimentalA","practiceB_and_experimentalB"
"89",120,0,7,24,835.133333333333,0.466666666666667,0.433333333333333,0.566666666666667,0.5,0.45,0.533333333333333,0.516666666666667,0.466666666666667,0.491666666666667,0.462989362574386,0.249260165497278,0.356124764035832,"MappingA_First","practiceA_and_experimentalA","practiceB_and_experimentalB"
"9",120,0,3,16,831.475,0.666666666666667,0.466666666666667,0.633333333333333,0.633333333333333,0.566666666666667,0.633333333333333,0.65,0.55,0.6,-0.325632143922963,-0.145413481577508,-0.235522812750236,"MappingA_First","practiceA_and_experimentalA","practiceB_and_experimentalB"
"90",120,0,7,16,860.266666666667,0.566666666666667,0.766666666666667,0.433333333333333,0.5,0.666666666666667,0.466666666666667,0.5,0.633333333333333,0.566666666666667,-0.241953157048599,-0.494078143679266,-0.368015650363933,"MappingA_First","practiceA_and_experimentalA","practiceB_and_experimentalB"
"91",120,0,7,20,814.641666666667,0.766666666666667,0.7,0.6,0.666666666666667,0.733333333333333,0.633333333333333,0.683333333333333,0.683333333333333,0.683333333333333,-0.0180224942645961,-0.0377654670041044,-0.0278939806343502,"MappingA_First","practiceA_and_experimentalA","practiceB_and_experimentalB"
"92",120,0,6,17,796.058333333333,0.7,0.666666666666667,0.766666666666667,0.466666666666667,0.683333333333333,0.616666666666667,0.733333333333333,0.566666666666667,0.65,0.00183415636503203,0.405639202458908,0.20373667941197,"MappingA_First","practiceA_and_experimentalA","practiceB_and_experimentalB"
"93",120,0,8,17,899.458333333333,0.633333333333333,0.6,0.8,0.533333333333333,0.616666666666667,0.666666666666667,0.716666666666667,0.566666666666667,0.641666666666667,0.381198385776633,0.35816145479789,0.369679920287261,"MappingA_First","practiceA_and_experimentalA","practiceB_and_experimentalB"
"94",120,0,5,17,793.833333333333,0.733333333333333,0.566666666666667,0.666666666666667,0.4,0.65,0.533333333333333,0.7,0.483333333333333,0.591666666666667,0.359551294076524,0.0825981636482768,0.2210747288624,"MappingA_First","practiceA_and_experimentalA","practiceB_and_experimentalB"
"95",120,0,9,20,868.066666666667,0.666666666666667,0.7,0.633333333333333,0.466666666666667,0.683333333333333,0.55,0.65,0.583333333333333,0.616666666666667,0.0208063154249225,0.0673033457616609,0.0440548305932917,"MappingA_First","practiceA_and_experimentalA","practiceB_and_experimentalB"
"96",120,0,3,12,809.65,0.6,0.666666666666667,0.6,0.733333333333333,0.633333333333333,0.666666666666667,0.6,0.7,0.65,0.0115888510161135,-0.091396931507609,-0.0399040402457478,"MappingA_First","practiceA_and_experimentalA","practiceB_and_experimentalB"
"97",120,0,5,16,901.241666666667,0.633333333333333,0.6,0.533333333333333,0.633333333333333,0.616666666666667,0.583333333333333,0.583333333333333,0.616666666666667,0.6,0.196868465924106,-0.0531615236575653,0.0718534711332703,"MappingA_First","practiceA_and_experimentalA","practiceB_and_experimentalB"
"98",120,0,4,16,861.391666666667,0.466666666666667,0.7,0.533333333333333,0.566666666666667,0.583333333333333,0.55,0.5,0.633333333333333,0.566666666666667,-0.670422401012933,0.166474371185909,-0.251974014913512,"MappingA_First","practiceA_and_experimentalA","practiceB_and_experimentalB"
"99",120,0,8,23,803.8,0.633333333333333,0.5,0.666666666666667,0.666666666666667,0.566666666666667,0.666666666666667,0.65,0.583333333333333,0.616666666666667,0.481788797867895,0.197065486412789,0.339427142140342,"MappingA_First","practiceA_and_experimentalA","practiceB_and_experimentalB"
